x,mean,stdev,median,proportion
50.0,17.3124,2.912113706571208,17.0,1.0
49.0,17.359,2.9207052230582757,17.0,1.0
48.0,17.4208,2.9632629582943855,17.0,1.0
47.0,17.3228,2.903687338540435,17.0,1.0
46.0,17.4492,2.9766120607160556,17.0,1.0
45.0,17.4398,2.9738823043288534,17.0,1.0
44.0,17.3012,2.9197394678292636,17.0,1.0
43.0,17.3174,2.919222026499475,17.0,1.0
42.0,17.4054,2.908788551957638,17.0,1.0
41.0,17.403,2.9307662820497895,17.0,1.0
40.0,17.3526,2.9649744079839992,17.0,1.0
39.0,17.3178,2.9280715769939945,17.0,1.0
38.0,17.3296,2.8882804295982014,17.0,1.0
37.0,17.4014,2.8617962960350534,17.0,1.0
36.0,17.3858,2.9660341130877668,17.0,1.0
35.0,17.3674,2.8958620892576987,17.0,1.0
34.0,17.3956,2.936784064244397,17.0,1.0
33.0,17.4172,2.9356335193616525,17.0,1.0
32.0,17.3758,2.9649577332568984,17.0,1.0
31.0,17.4122,2.9764897379295743,17.0,1.0
30.0,17.414165666266506,3.000489391549527,17.0,0.9996
29.0,17.33440064038423,2.8895420013853923,17.0,0.9994
28.0,17.383276655331066,2.9210331858182808,17.0,0.9998
27.0,17.3468161794153,2.945415665671343,17.0,0.9988
26.0,17.40356856455493,2.902609798207072,17.0,0.9976
25.0,17.380694360826812,2.8971542016076723,17.0,0.9966
24.0,17.4,2.9027154996340054,17.0,0.997
23.0,17.398071901988352,2.9007489627924294,17.0,0.9958
22.0,17.362321751355694,2.9467514924771647,17.0,0.9958
21.0,17.44773413897281,2.954835830517483,17.0,0.993
20.0,17.452826393079864,2.9868513500948284,17.0,0.9942
19.0,17.383870967741935,2.887162551061819,17.0,0.992
18.0,17.44954499494439,2.938866893901178,17.0,0.989
17.0,17.407459963511048,2.944895822865283,17.0,0.9866
16.0,17.42025730038799,2.9015255321437534,17.0,0.9794
15.0,17.429417773237997,2.9983776287565713,17.0,0.979
14.0,17.43404342482589,2.9668129538949133,17.0,0.9764
13.0,17.44261620732209,3.0032715577751903,17.0,0.9724
12.0,17.70305676855895,3.0114484910149946,17.0,0.9618
11.0,17.641100458524384,3.120545177862753,17.0,0.9596
10.0,17.813569937369518,3.15423028252082,17.0,0.958
9.0,17.85601001669449,3.239940348576961,18.0,0.9584
8.0,18.059911709060334,3.271279044777276,18.0,0.9514
7.0,18.262054507337528,3.4654458380658317,18.0,0.954
6.0,18.522617294340417,3.6855641142831255,18.0,0.9506
5.0,18.78784693019344,3.8794637751401804,18.0,0.9512
4.0,18.923272573124205,3.918527654720825,18.0,0.9436
3.0,19.242635484596356,4.099976040563574,19.0,0.8894
2.0,19.058595766649457,3.9271797810610662,19.0,0.7748
1.0,18.98068397720076,4.039145914939053,18.0,0.6316
0.0,18.808130582075762,3.8932263459175083,18.0,0.6494
-1.0,18.81727062451812,3.7461564098884557,18.0,0.5188
-2.0,18.795910639909124,3.8908331103580625,18.0,0.5282
-3.0,18.581702544031312,3.718662648838199,18.0,0.4088
-4.0,18.600098619329387,3.7076790070697565,18.0,0.4056
-5.0,18.449565798263194,3.6230578118022363,18.0,0.2994
-6.0,18.373525557011796,3.460987445414333,18.0,0.3052
-7.0,18.351819757365686,3.5112052839970422,18.0,0.2308
-8.0,18.22811671087533,3.6050786811951285,18.0,0.2262
-9.0,18.187571921749136,3.389964505986281,18.0,0.1738
-10.0,17.94392523364486,3.2185408422588786,18.0,0.1712
-11.0,17.93708609271523,3.19395363985065,17.0,0.1208
-12.0,17.804241435562805,2.9543865062809864,18.0,0.1226
-13.0,17.66743648960739,3.0348669950818437,17.0,0.0866
-14.0,17.799007444168733,3.048295949538752,17.0,0.0806
-15.0,17.874564459930312,2.992140879081399,18.0,0.0574
-16.0,17.7773851590106,2.825286667351229,18.0,0.0566
-17.0,17.916666666666668,3.2821437080453135,17.5,0.0408
-18.0,17.66183574879227,2.740225053714061,18.0,0.0414
-19.0,17.338582677165356,2.671578236672202,17.0,0.0254
