x,mean,stdev,median,proportion
38.0,-2.6958174904942966,6.253110374103489,-3.0,0.00263
30.0,-2.797328420082911,6.348718738447582,-3.0,0.02171
33.0,-2.6682926829268294,6.166725779631025,-3.0,0.01025
15.0,-0.570528967254408,6.914788151938454,-1.0,0.0397
31.0,-3.0551470588235294,6.116224186350723,-4.0,0.01904
23.0,-1.913951421800948,6.465766186002081,-2.0,0.06752
26.0,-2.4352187833511207,6.27936582766109,-3.0,0.04685
47.0,-4.0,4.85164524037584,-2.0,0.00013
27.0,-2.5087942900841194,6.244619332550305,-3.0,0.03923
50.0,-4.0,7.0,-4.0,0.00002
35.0,-3.141287284144427,6.200633499871479,-4.0,0.00637
56.0,-3.0,0.0,-3.0,0.00001
32.0,-2.8740268931351736,6.112160953911783,-3.0,0.01413
16.0,-0.7109150201419528,6.7534667431693345,-1.0,0.05213
21.0,-1.7398768182413837,6.599109388651792,-2.0,0.07631
12.0,1.2209944751381216,7.040396547170188,1.0,0.00724
17.0,-1.0003214400514304,6.741305093815813,-1.0,0.06222
45.0,-3.5652173913043477,6.2750443404393685,-3.0,0.00023
44.0,-3.5428571428571427,5.822826300212722,-5.0,0.00035
39.0,-3.5053763440860215,5.871607748013918,-4.0,0.00186
13.0,0.06242350061199511,6.870084547580491,0.0,0.01634
48.0,-2.0,5.244044240850758,-1.5,0.00008
41.0,-4.6525423728813555,5.861938591013616,-5.5,0.00118
34.0,-3.2482185273159145,6.075839221213149,-4.0,0.00842
11.0,1.1545893719806763,6.711103043348223,1.0,0.00207
42.0,-2.280701754385965,5.142715461170132,-2.0,0.00057
18.0,-1.3315911730545877,6.654452869817601,-2.0,0.06888
40.0,-3.267175572519084,5.672788169004345,-3.0,0.00131
20.0,-1.4319199367922044,6.586965111247143,-2.0,0.07594
51.0,-1.0,4.0,-1.0,0.00002
29.0,-2.8535701341065605,6.281335865789555,-4.0,0.02759
24.0,-2.1860503103560927,6.434032969373166,-3.0,0.06122
49.0,-4.75,5.11737237261468,-7.0,0.00004
53.0,-9.0,6.0,-9.0,0.00002
52.0,-1.25,5.629165124598851,-3.0,0.00004
14.0,-0.047959914101646385,6.780840977069362,0.0,0.02794
46.0,-2.769230769230769,3.964338069761577,-3.0,0.00013
22.0,-1.9323611111111112,6.56040373779937,-3.0,0.072
37.0,-3.315942028985507,5.963794706475668,-4.0,0.00345
28.0,-2.786865671641791,6.214374816109058,-3.0,0.0335
19.0,-1.3182765809589994,6.770240511612074,-2.0,0.07195
36.0,-3.302375809935205,6.126045974356798,-4.0,0.00463
25.0,-2.302929795467109,6.399741786645692,-3.0,0.05427
43.0,-3.2916666666666665,5.837944605956982,-3.0,0.00048
