x,mean,stdev,median,proportion
50.0,17.514314314314316,2.613345534020647,17.0,0.999
49.0,17.556645316253004,2.654926134815242,17.0,0.9992
48.0,17.650901803607216,2.64172891335959,17.0,0.998
47.0,17.64265706282513,2.640141140344123,17.0,0.9996
46.0,17.581348809285572,2.6310815068603417,17.0,0.9994
45.0,17.6231477773328,2.624503466471818,17.0,0.9988
44.0,17.606971153846153,2.6518346562407697,17.0,0.9984
43.0,17.642413309280418,2.701938954121138,17.0,0.9978
42.0,17.67067789811472,2.649964735315621,17.0,0.9972
41.0,17.63372093023256,2.595327989600468,17.0,0.9976
40.0,17.63731193580742,2.658053374032484,17.0,0.997
39.0,17.60634028892456,2.647860202704017,17.0,0.9968
38.0,17.611479028697573,2.6190239122949337,17.0,0.9966
37.0,17.67550200803213,2.687155646939602,17.0,0.996
36.0,17.69125352680371,2.644417983945347,17.0,0.9924
35.0,17.627972591696896,2.650820920517777,17.0,0.9924
34.0,17.641980277721874,2.653236229636002,17.0,0.9938
33.0,17.746473196291817,2.690357154822225,18.0,0.9924
32.0,17.66781725888325,2.6920657641076913,17.0,0.985
31.0,17.732614884099227,2.7291815621733133,18.0,0.9836
30.0,17.771155410903173,2.6950195845069307,18.0,0.9832
29.0,17.74872527024271,2.744710282816352,18.0,0.9806
28.0,17.81464110929853,2.766339150160262,18.0,0.9808
27.0,17.854620123203286,2.8484323671362746,18.0,0.974
26.0,17.87731196054254,2.865234275920063,18.0,0.9732
25.0,17.939778779188856,2.8922438964355757,18.0,0.9764
24.0,18.002666119770304,2.9601871954740138,18.0,0.9752
23.0,18.127737973387923,3.056958152022218,18.0,0.977
22.0,18.165843621399176,2.9378448065262113,18.0,0.972
21.0,18.23533032416906,3.1195926090445583,18.0,0.9748
20.0,18.35917525773196,3.2732693294786253,18.0,0.97
19.0,18.400701899256813,3.244611795048253,18.0,0.9688
18.0,18.580952380952382,3.4667258202584375,18.0,0.966
17.0,18.738823040133084,3.5232041828952383,18.0,0.9618
16.0,18.841326854003803,3.590248915311799,18.0,0.9466
15.0,19.070031545741326,3.77544447269559,18.0,0.951
14.0,19.21926839642705,3.90064108973759,19.0,0.9404
13.0,19.439118339396533,4.008735623947997,19.0,0.9346
12.0,19.71121153432322,4.234630454845257,19.0,0.9294
11.0,19.89891304347826,4.2847554484833585,19.0,0.92
10.0,20.398130028267015,4.6257178334525495,20.0,0.9198
9.0,20.68065934065934,4.789021282057018,20.0,0.91
8.0,20.9789029535865,4.9613428068808885,20.0,0.9006
7.0,21.52044273774565,5.384701281475499,20.0,0.8854
6.0,21.974071478626488,5.637912715156631,21.0,0.8562
5.0,22.287247317194907,5.626561360828631,21.0,0.8014
4.0,22.785472018089315,6.003630267453093,22.0,0.7076
3.0,22.61865524060646,5.982389672552163,22.0,0.6068
2.0,23.090251170710943,6.153661228075768,22.0,0.4698
1.0,22.877871148459384,6.110347375380757,22.0,0.357
0.0,23.001681614349774,6.294304625196846,22.0,0.3568
-1.0,22.14397649363369,5.668946931302806,21.0,0.2042
-2.0,22.31231231231231,6.104410076407006,21.0,0.1998
-3.0,22.02145214521452,5.981920108819909,21.0,0.1212
-4.0,22.15224358974359,6.291087618833771,21.0,0.1248
-5.0,21.675675675675677,5.561281036387624,21.0,0.0666
-6.0,21.605714285714285,5.778677201927936,20.0,0.07
-7.0,21.280423280423282,5.581591799531824,20.0,0.0378
-8.0,21.459302325581394,5.749982364118086,20.0,0.0344
-9.0,19.402985074626866,4.168322979624277,18.0,0.0134
-10.0,19.704225352112676,4.45760741166608,19.0,0.0142
-11.0,19.0,4.203173404306164,17.5,0.0048
-12.0,18.304347826086957,3.042235771223635,18.0,0.0046
-13.0,18.666666666666668,3.1269438398822866,18.0,0.0018
-14.0,17.0,3.295017884191656,16.0,0.0014
-15.0,17.2,2.7129319932501073,17.0,0.001
-16.0,17.333333333333332,3.39934634239519,17.0,0.0012
-17.0,16.0,1.4142135623730951,17.0,0.0006
-18.0,20.0,2.943920288775949,19.0,0.0006
-19.0,0.0,0.0,0.0,0.0
