x,mean,stdev,median,proportion
46.0,-4.95,6.8005514482282985,-4.0,0.0002
43.0,-2.0416666666666665,5.7080291889777675,-3.0,0.00048
45.0,-3.2916666666666665,6.031025110948295,-1.0,0.00024
35.0,-3.24405705229794,5.911981872232086,-4.0,0.00631
37.0,-3.096952908587258,6.303410378912723,-4.0,0.00361
29.0,-2.6065630397236617,6.26162132828285,-3.0,0.02895
49.0,-1.0,8.0,-1.0,0.00002
44.0,-1.4193548387096775,5.522821821685858,-2.0,0.00031
48.0,-9.2,3.4292856398964493,-10.0,0.00005
55.0,-1.0,0.0,-1.0,0.00001
52.0,-8.0,0.0,-8.0,0.00001
54.0,-9.0,0.0,-9.0,0.00001
23.0,-2.1305179517363153,6.523458265094906,-3.0,0.06796
18.0,-1.2437833037300177,6.6526957914427856,-2.0,0.06756
16.0,-0.5490001979805978,6.863413058697173,-1.0,0.05051
51.0,-4.25,2.277608394786075,-3.5,0.00004
15.0,-0.3493670886075949,6.793963691203972,-1.0,0.0395
50.0,4.333333333333333,5.2493385826745405,7.0,0.00003
34.0,-2.54233409610984,5.961636855998217,-3.0,0.00874
56.0,-3.0,0.0,-3.0,0.00001
30.0,-2.5633262260127934,6.286372917558151,-3.0,0.02345
27.0,-2.4376861966236345,6.505886098858395,-3.0,0.04028
38.0,-3.164233576642336,6.0886424988078165,-4.0,0.00274
25.0,-2.2660319741332855,6.465603212773808,-3.0,0.05567
41.0,-3.9134615384615383,6.85580968808863,-4.0,0.00104
21.0,-1.891348088531187,6.561640778427509,-2.0,0.07455
33.0,-3.0994671403197156,5.9793056144340895,-3.0,0.01126
39.0,-3.5421686746987953,5.872749412183007,-4.0,0.00166
19.0,-1.3385423683146975,6.745126550894565,-2.0,0.07423
31.0,-2.7664804469273743,6.401308736073734,-3.0,0.0179
40.0,-4.00709219858156,6.057053158354368,-5.0,0.00141
11.0,1.0050761421319796,6.6121695694773415,0.0,0.00197
36.0,-3.538784067085954,5.945336684402254,-4.0,0.00477
17.0,-0.982095926412615,6.805456095192805,-2.0,0.06088
24.0,-2.108927108927109,6.387315484192458,-3.0,0.06105
22.0,-2.041620575221239,6.499090221036302,-3.0,0.07232
32.0,-2.8944281524926687,6.205947250116728,-3.0,0.01364
47.0,-4.454545454545454,6.228433866531142,-3.0,0.00011
42.0,-3.0606060606060606,6.348177471404539,-4.0,0.00066
20.0,-1.5862387744321182,6.688968436371533,-2.0,0.07572
28.0,-2.4431818181818183,6.51654073590784,-3.0,0.03432
14.0,0.10372244307914709,6.980928940219236,0.0,0.02767
12.0,0.8948863636363636,7.029182432467154,1.0,0.00704
13.0,0.30707070707070705,6.8894090268402755,0.0,0.01485
26.0,-2.450064850843061,6.400439163294961,-3.0,0.04626
