x,mean,stdev,median,proportion
17.0,6.2213928012519615,7.108931191493358,7.0,0.0426
20.0,3.0237863247863244,7.882796017293568,2.0,0.0052
18.0,5.0685798941798925,6.253827145846833,4.066666666666668,0.021
19.0,5.421280423280422,7.2031924091848225,5.5666666666666655,0.0084
16.0,6.732686297605028,7.6698030211958335,6.133333333333333,0.0566
13.0,11.159870206489678,8.603775633646885,12.0,0.0226
15.0,8.444954289732753,7.9250702362806384,8.133333333333333,0.0632
22.0,5.742222222222222,2.8689775354236278,6.0,0.0006
14.0,9.336872944693575,8.337914725222925,9.079999999999998,0.0446
21.0,3.348095238095237,5.183000404908233,2.093333333333333,0.0028
23.0,3.0666666666666664,0.0,3.0666666666666664,0.0002
