x,mean,stdev,median,proportion
17.0,18.892487444911346,11.839737365692073,18.0,0.09757
20.0,16.610204081632652,10.336634767935726,16.0,0.0049
14.0,22.919813263764933,13.530804917563364,22.0,0.21849
13.0,24.44927826784282,13.996864749475531,23.0,0.14964
22.0,17.0,7.255092255537736,16.5,0.00022
19.0,17.483030303030304,11.082719960657435,16.0,0.0165
16.0,19.996325459317585,12.383473234983803,19.0,0.17145
18.0,18.111386696730552,11.376165029198072,17.0,0.04435
11.0,28.049668874172184,14.642455617582463,27.0,0.01208
21.0,17.21951219512195,9.987420205622291,16.0,0.00123
24.0,20.333333333333332,8.73053390247253,18.0,0.00003
15.0,21.287252737349615,12.986469574386243,20.0,0.22193
12.0,26.486438200422285,14.494391995395395,25.0,0.06157
23.0,16.0,10.246950765959598,12.0,0.00004
