x,mean,stdev,median,proportion
50.0,17.4256,3.0540570787069603,17.0,1.0
49.0,17.3368,2.878014204273483,17.0,1.0
48.0,17.3546,2.9245271139108895,17.0,1.0
47.0,17.457,2.980159559486692,17.0,1.0
46.0,17.333,2.8942893773774854,17.0,1.0
45.0,17.3944,2.9667572600400147,17.0,1.0
44.0,17.4148,2.9942513187773696,17.0,1.0
43.0,17.3028,2.9399170328429185,17.0,1.0
42.0,17.3538,2.924487230267894,17.0,1.0
41.0,17.4082,2.937136830316222,17.0,1.0
40.0,17.3254,2.890798304966987,17.0,1.0
39.0,17.388,2.9388868641034764,17.0,1.0
38.0,17.358,2.9594317022023606,17.0,1.0
37.0,17.3992,2.9430323409707224,17.0,1.0
36.0,17.3542,2.9845506127388703,17.0,1.0
35.0,17.36987397479496,2.940739735875939,17.0,0.9998
34.0,17.401480296059212,2.862845609906091,17.0,0.9998
33.0,17.3796,2.9326956609918278,17.0,1.0
32.0,17.363,2.9861063276447113,17.0,1.0
31.0,17.336867373474696,2.951251437208085,17.0,0.9998
30.0,17.38643185911547,2.9754784656033513,17.0,0.9994
29.0,17.31452581032413,2.9148090040080037,17.0,0.9996
28.0,17.36784140969163,2.911774232507836,17.0,0.9988
27.0,17.38627725545109,2.9419637581206923,17.0,0.9998
26.0,17.35249349088724,2.9634130381666877,17.0,0.9986
25.0,17.30602843981574,2.9107282565311667,17.0,0.9986
24.0,17.3625250501002,2.957792336843366,17.0,0.998
23.0,17.400802407221665,3.0204650279434184,17.0,0.997
22.0,17.394609814963797,2.9079390160051184,17.0,0.9944
21.0,17.38794840790004,2.950081783643953,17.0,0.9924
20.0,17.39287152637938,2.955384024894504,17.0,0.9932
19.0,17.339786247227263,2.8893159811212024,17.0,0.9918
18.0,17.331851253031527,2.879101946772921,17.0,0.9896
17.0,17.431587494924887,2.9543984765876248,17.0,0.9852
16.0,17.407482716551442,2.956558339957874,17.0,0.9836
15.0,17.465520769388174,2.9938187547971395,17.0,0.9774
14.0,17.467489711934157,2.9330619744885147,17.0,0.972
13.0,17.506180469715698,2.908341391045847,17.0,0.9708
12.0,17.64045643153527,3.0479539084744753,17.0,0.964
11.0,17.676721447888497,3.0765027170758907,17.0,0.9614
10.0,17.71040534893439,3.0624036801801786,17.0,0.9572
9.0,17.880678249947668,3.1503390436765835,18.0,0.9554
8.0,18.169854950599117,3.4032702990171755,18.0,0.9514
7.0,18.220735785953178,3.3806361031562284,18.0,0.9568
6.0,18.528297917104986,3.6010974999746206,18.0,0.9506
5.0,18.812173185526042,3.8347842550127638,18.0,0.9562
4.0,19.003586497890296,4.016499174411126,18.0,0.948
3.0,19.238705327039785,4.037097441536147,19.0,0.8898
2.0,19.065061475409838,4.022397411848308,18.0,0.7808
1.0,19.048549810844893,3.9519706055894503,18.0,0.6344
0.0,18.98181818181818,4.036081212407582,18.0,0.638
-1.0,18.719604863221885,3.616865067123143,18.0,0.5264
-2.0,18.780258519388955,3.775305012768491,18.0,0.5106
-3.0,18.730971756821447,3.7323579667579945,18.0,0.4178
-4.0,18.59758551307847,3.759900974394796,18.0,0.3976
-5.0,18.433719433719435,3.624391228487682,18.0,0.3108
-6.0,18.347797062750335,3.485407088174695,18.0,0.2996
-7.0,18.19104991394148,3.316571197591913,18.0,0.2324
-8.0,18.235395189003437,3.341849308779278,18.0,0.2328
-9.0,18.02542372881356,3.2663198189150022,18.0,0.1652
-10.0,17.987164527421236,3.1598522205599853,18.0,0.1714
-11.0,17.84417808219178,3.06572417797328,17.0,0.1168
-12.0,17.86744966442953,3.249813759116485,17.0,0.1192
-13.0,17.941176470588236,3.1446298120975453,18.0,0.0816
-14.0,17.640522875816995,2.9644540013576095,17.0,0.0918
-15.0,17.701587301587303,2.8784636589731725,17.0,0.063
-16.0,17.92280701754386,3.018249611470818,17.0,0.057
-17.0,17.833333333333332,2.6740967915903218,18.0,0.0336
-18.0,17.304597701149426,2.5940430453086654,17.0,0.0348
-19.0,17.560344827586206,3.1080784425802164,17.0,0.0232
