x,mean,stdev,median,proportion
50.0,14.69255533199195,1.6598116634138913,15.0,0.994
49.0,14.70897770636674,1.6824238614311984,15.0,0.9958
48.0,14.75392670157068,1.6905900538061043,15.0,0.9932
47.0,14.832763131414772,1.7534731749094064,15.0,0.9938
46.0,14.863242698892245,1.765858474388729,15.0,0.993
45.0,14.954041523886314,1.9357509970253062,15.0,0.9922
44.0,14.987484860718611,1.8669524681257084,15.0,0.9908
43.0,15.12638804764789,1.9763839443008675,15.0,0.9906
42.0,15.129794105773113,1.9359726201234324,15.0,0.9908
41.0,15.17438802346753,2.0225152606897923,15.0,0.9886
40.0,15.245500505561173,2.11633171704055,15.0,0.989
39.0,15.369604863221884,2.261785109231403,15.0,0.987
38.0,15.415209434729565,2.182975196952277,15.0,0.9836
37.0,15.54274111675127,2.3473174232012024,15.0,0.985
36.0,15.659196446598022,2.4173277332728444,15.0,0.9906
35.0,15.782802676941797,2.5491470759144383,15.0,0.9862
34.0,15.885615603413246,2.6125459809124063,15.0,0.9844
33.0,16.038908127928295,2.754265513444759,15.0,0.9818
32.0,16.166002098635886,2.812492456419073,16.0,0.953
31.0,16.249790268456376,2.9213508969987196,16.0,0.9536
30.0,16.430707666385846,3.092310585332428,16.0,0.9496
29.0,16.585858585858585,3.2220361872772245,16.0,0.9504
28.0,16.70522779760655,3.1802237632773522,16.0,0.9526
27.0,16.938580054132835,3.4923813190922965,16.0,0.9606
26.0,17.23041761894868,3.555428155148328,16.0,0.9626
25.0,17.46545304095987,3.7797429128095574,16.0,0.9668
24.0,17.716845140032948,4.028360694142692,17.0,0.9712
23.0,17.827692307692306,3.9588462846295376,17.0,0.975
22.0,18.146893829212548,4.202023447327496,17.0,0.9626
21.0,18.409513960703205,4.513043542683899,17.0,0.967
20.0,18.588003320880034,4.557168493787568,17.0,0.9636
19.0,18.880992080033348,4.7663421184401304,18.0,0.9596
18.0,19.252731092436974,4.924662776830868,18.0,0.952
17.0,19.408832807570978,4.95309713137817,18.0,0.951
16.0,19.733996539792386,5.194504343741614,18.0,0.9248
15.0,20.182627578718783,5.425467956046197,19.0,0.921
14.0,20.339305221760977,5.276991312762177,19.0,0.9154
13.0,20.72887323943662,5.620713778364653,19.0,0.9088
12.0,20.824312333629102,5.543344878494621,20.0,0.9016
11.0,21.311215370866844,5.792654222161843,20.0,0.8952
10.0,21.779401843939734,5.954414061860494,20.0,0.8894
9.0,22.121149897330596,5.9602200461876444,21.0,0.8766
8.0,22.819656930922577,6.400946214900476,22.0,0.8628
7.0,23.02878716375649,6.407259184782382,22.0,0.8476
6.0,23.712262958280657,6.895179709252573,22.0,0.791
5.0,24.11824139814309,6.867430821102856,23.0,0.7324
4.0,24.745945945945945,7.208633112788426,23.0,0.629
3.0,24.857087075361186,7.361574143178614,23.0,0.5122
2.0,25.025214321734744,7.472887261031932,24.0,0.3966
1.0,24.806233062330623,7.0719579944468824,23.0,0.2952
0.0,25.050778605280975,7.419493054555481,24.0,0.2954
-1.0,24.15514333895447,7.311628430677421,23.0,0.1186
-2.0,24.244274809160306,7.52349155894103,23.0,0.131
-3.0,23.956521739130434,7.136510818282648,23.0,0.0644
-4.0,24.471760797342192,6.768848414592068,23.0,0.0602
-5.0,24.781512605042018,9.295485182111234,22.0,0.0238
-6.0,22.611510791366907,6.202240012346092,22.0,0.0278
-7.0,22.696202531645568,8.011628305836439,21.0,0.0158
-8.0,23.45,6.6837489480081445,22.0,0.016
-9.0,18.833333333333332,4.031128874149275,18.0,0.0036
-10.0,23.357142857142858,9.64074050843712,18.0,0.0028
-11.0,17.5,1.5,17.5,0.0004
-12.0,17.333333333333332,3.39934634239519,16.0,0.0006
-13.0,0.0,0.0,0.0,0.0
