x,mean,stdev,median,proportion
17.0,12.720724787206603,9.86703404194851,12.0,0.15508
21.0,11.470297029702971,9.321880812277868,10.0,0.05858
11.0,14.497109826589595,10.939996236674784,13.0,0.00173
28.0,11.711538461538462,7.731893335801588,10.5,0.00052
15.0,13.299627906976744,10.294337565285952,12.0,0.1075
16.0,12.903578100301768,9.91018946749725,12.0,0.13918
18.0,12.337439109255394,9.666940549089274,11.0,0.1437
29.0,9.625,7.896795236043543,9.0,0.00016
31.0,7.5,1.5,7.5,0.00002
12.0,14.45940390544707,10.900542923496687,13.0,0.00973
20.0,11.845726592609386,9.38695000581972,11.0,0.08822
26.0,10.63768115942029,8.37304338293691,11.0,0.00276
19.0,12.137223710649698,9.470465999658625,11.0,0.11944
32.0,2.0,0.0,2.0,0.00001
24.0,11.076216712580349,8.872045946521366,10.0,0.01089
27.0,12.020979020979022,8.040516745273802,11.0,0.00143
25.0,10.582897033158813,8.766041131664457,10.0,0.00573
30.0,12.3,9.434511116109833,8.5,0.0001
14.0,13.726961441119547,10.503430657307911,12.0,0.06717
13.0,14.007551919446193,10.56907839454846,13.0,0.03178
34.0,16.0,0.0,16.0,0.00001
23.0,11.197464651389566,9.099724515528024,10.0,0.02051
22.0,10.906853146853146,9.00442753716973,10.0,0.03575
