x,mean,stdev,median,proportion
36.0,3.7142857142857144,5.140652084597369,2.0,0.00063
40.0,4.916666666666667,5.361255035488943,4.0,0.00012
17.0,6.8438984935800224,7.1195787448275585,6.0,0.09891
37.0,4.604651162790698,5.113318382255559,4.0,0.00043
13.0,7.21805328983143,7.394189650141578,7.0,0.01839
44.0,16.0,1.0,16.0,0.00002
23.0,6.054910791616144,6.67769792847432,5.0,0.05773
30.0,5.274596182085169,6.079943498311314,5.0,0.00681
31.0,5.779735682819383,6.3772678557973235,5.0,0.00454
27.0,5.518756698821008,6.516359309240728,5.0,0.01866
12.0,8.075125208681134,7.5950976374821595,7.0,0.00599
41.0,4.0,3.8987177379235853,3.0,0.00005
20.0,6.277064789898572,6.886107331659497,6.0,0.09662
21.0,6.267336089781453,6.719438863839019,6.0,0.08465
33.0,4.881856540084388,5.823961845200906,5.0,0.00237
22.0,5.980629877369008,6.638943620898634,6.0,0.07176
26.0,5.619573495811119,6.346702879594763,5.0,0.02626
39.0,3.0,4.69041575982343,3.5,0.00018
28.0,5.315679442508711,6.116180471728085,5.0,0.01435
35.0,5.170212765957447,6.104825956137541,4.0,0.00094
24.0,5.97551993067591,6.509928321986498,5.0,0.04616
38.0,4.64,6.541437150963081,3.0,0.00025
43.0,4.666666666666667,3.39934634239519,6.0,0.00003
45.0,6.0,0.0,6.0,0.00001
15.0,7.029463570856685,7.438098738437743,6.0,0.06245
32.0,5.245562130177515,6.131840062642873,5.0,0.00338
18.0,6.697419784823384,7.155396238671615,6.0,0.10503
25.0,5.7211428571428575,6.500853469871071,5.0,0.035
34.0,4.431506849315069,5.593425120507131,4.0,0.00146
14.0,7.118792866941015,7.352641298944931,7.0,0.03645
29.0,5.675025075225677,6.293610786708764,5.0,0.00997
16.0,6.966465621230398,7.368817990814438,6.0,0.0829
19.0,6.4601595495072734,6.992352447344914,6.0,0.10655
11.0,8.126315789473685,8.842769398617106,8.0,0.00095
