x,mean,stdev,median,proportion
54.0,-11.0,0.0,-11.0,0.00001
52.0,0.0,2.0,0.0,0.00002
22.0,-1.8091383095499451,6.4913764397819405,-2.0,0.07288
12.0,0.6149732620320856,6.932554403737661,0.0,0.00748
47.0,-4.076923076923077,5.902561874846424,-6.0,0.00013
32.0,-2.58470335954253,6.308923111793147,-3.0,0.01399
24.0,-2.3648875461564285,6.5001966876361,-3.0,0.05958
46.0,-4.533333333333333,6.15214506403164,-4.0,0.00015
34.0,-2.9747292418772564,6.306880214766785,-4.0,0.00831
14.0,-0.1291499452754469,6.978057047652779,-1.0,0.02741
45.0,-3.230769230769231,6.76704510168833,-5.0,0.00026
17.0,-1.1264197530864197,6.7306425332375746,-2.0,0.06075
26.0,-2.3133976420150053,6.42686304720421,-3.0,0.04665
51.0,-5.333333333333333,4.642796092394707,-7.0,0.00003
19.0,-1.464101169431602,6.5964839975418075,-2.0,0.07354
29.0,-2.5653429602888087,6.346455644736638,-3.0,0.0277
13.0,0.6819852941176471,6.869224417488694,0.0,0.01632
50.0,-8.0,0.0,-8.0,0.00001
16.0,-0.6602797470779843,6.779287741804391,-1.0,0.05219
40.0,-3.089041095890411,5.763514473001949,-3.0,0.00146
48.0,-3.6,4.1521078984053394,-3.0,0.0001
39.0,-3.0691489361702127,5.819127056631621,-4.0,0.00188
35.0,-3.296795952782462,6.185410118530435,-4.0,0.00593
18.0,-1.2366293091218612,6.70524577781432,-2.0,0.07049
37.0,-3.0690789473684212,5.829696362416986,-4.0,0.00304
41.0,-3.9,4.99299509312797,-4.0,0.001
49.0,0.0,4.0,0.0,0.00002
25.0,-2.145140308492845,6.515568897907797,-3.0,0.05381
20.0,-1.646198445117934,6.546820363741519,-2.0,0.07589
38.0,-3.3474903474903477,5.737072379981803,-4.0,0.00259
21.0,-1.7298515376458112,6.5871617221517855,-2.0,0.07544
36.0,-3.045267489711934,6.5710745554454695,-4.0,0.00486
33.0,-2.9038642789820925,6.1793943375801685,-3.0,0.01061
11.0,0.7880434782608695,6.922212865452159,0.5,0.00184
23.0,-2.123506571087216,6.4701647328724174,-3.0,0.06696
43.0,-2.8507462686567164,5.9956544744849545,-3.0,0.00067
42.0,-2.7903225806451615,6.453648872297707,-3.5,0.00062
28.0,-2.678137051320083,6.279880307597095,-3.0,0.03371
53.0,-2.5,6.5,-2.5,0.00002
30.0,-2.7382920110192837,6.198907841180826,-3.0,0.02178
31.0,-2.7294557097118464,6.275761594299645,-3.0,0.01874
44.0,-1.0416666666666667,6.113367638944094,-1.0,0.00024
15.0,-0.493529118964659,6.8505763375477,-1.0,0.04018
27.0,-2.5676737902235325,6.379412698631669,-3.0,0.04071
