x,mean,stdev,median,proportion
50.0,17.4366,2.9740848071297186,17.0,1.0
49.0,17.2902,2.8901875302478057,17.0,1.0
48.0,17.3298,2.9226412643360944,17.0,1.0
47.0,17.3602,2.981820913468828,17.0,1.0
46.0,17.3918,2.9619407083870044,17.0,1.0
45.0,17.3602,2.937627607441095,17.0,1.0
44.0,17.3354,2.993076484154609,17.0,1.0
43.0,17.3768,2.9387789573222713,17.0,1.0
42.0,17.4508,3.009913513707674,17.0,1.0
41.0,17.3826,2.926263357936199,17.0,1.0
40.0,17.3824,2.9217409604548794,17.0,1.0
39.0,17.3626,2.94610272054455,17.0,1.0
38.0,17.3916,2.99370162841922,17.0,1.0
37.0,17.352,2.9169326354923006,17.0,1.0
36.0,17.3076,2.85555287816557,17.0,1.0
35.0,17.3582,2.8842837516444155,17.0,1.0
34.0,17.374674934987,2.8805392326104404,17.0,0.9998
33.0,17.427,2.922990078669474,17.0,1.0
32.0,17.3698,2.9329589086791152,17.0,1.0
31.0,17.401360544217688,3.004427530091772,17.0,0.9996
30.0,17.366,2.9536492682782085,17.0,1.0
29.0,17.41008201640328,2.9971424633913775,17.0,0.9998
28.0,17.3388710968775,2.9253212216776703,17.0,0.9992
27.0,17.382735830162225,2.8865868604454183,17.0,0.9986
26.0,17.39031224979984,2.9384836176768165,17.0,0.9992
25.0,17.471531676022455,2.9346312280534197,17.0,0.9976
24.0,17.34764292878636,2.9321492900704387,17.0,0.997
23.0,17.397950984331057,2.9398229674522818,17.0,0.9956
22.0,17.339153120610074,2.9339792503791617,17.0,0.9966
21.0,17.413848631239937,2.988205721298995,17.0,0.9936
20.0,17.37243047158404,2.9028245320216954,17.0,0.9924
19.0,17.449465402461165,2.969843423196687,17.0,0.9914
18.0,17.36512758201701,2.9731032348718047,17.0,0.9876
17.0,17.44500606550748,2.9611837684475137,17.0,0.9892
16.0,17.486591606960083,2.9780628076032762,17.0,0.977
15.0,17.49712879409352,2.9786965715914,17.0,0.9752
14.0,17.4811320754717,2.9697429666090986,17.0,0.9752
13.0,17.539460127756026,3.0247857689733095,17.0,0.9706
12.0,17.565361508183138,2.9426578509423447,17.0,0.9654
11.0,17.64912645590682,2.9764423205402744,17.0,0.9616
10.0,17.75960939123208,3.089659168989777,17.0,0.9626
9.0,17.96057571964956,3.2952206452938975,18.0,0.9588
8.0,18.076696785038873,3.313075132893427,18.0,0.9518
7.0,18.25946173254836,3.511839407845923,18.0,0.9512
6.0,18.47088395475492,3.5274806277155935,18.0,0.9548
5.0,18.69313395113732,3.7222405905678,18.0,0.9496
4.0,18.978219090326714,3.997804713284952,18.0,0.9366
3.0,19.14378209421746,4.053928833725261,19.0,0.8958
2.0,19.012684442143414,3.8849083891932934,18.0,0.7726
1.0,19.072155411655874,3.8826096790337243,19.0,0.6486
0.0,18.95069532237674,4.005223693674923,18.0,0.6328
-1.0,18.807929176289452,3.8118346494204176,18.0,0.5196
-2.0,18.71048632218845,3.856043226982092,18.0,0.5264
-3.0,18.638340920586746,3.635269105027625,18.0,0.3954
-4.0,18.62783661119516,3.683613481340051,18.0,0.3966
-5.0,18.606040709126724,3.7061841121733763,18.0,0.3046
-6.0,18.453896103896103,3.5778654507975602,18.0,0.308
-7.0,18.015915119363395,3.238215870330007,18.0,0.2262
-8.0,18.332737030411447,3.4893425557112177,18.0,0.2236
-9.0,18.262376237623762,3.2946055965264023,18.0,0.1616
-10.0,18.11372064276885,3.160623325120304,18.0,0.1618
-11.0,17.908045977011493,3.2742340321157735,17.0,0.1218
-12.0,18.01047120418848,3.20610705772214,18.0,0.1146
-13.0,17.62162162162162,3.0911208324771042,17.0,0.0888
-14.0,17.73181818181818,3.000134294514823,17.5,0.088
-15.0,17.82051282051282,2.920312297142084,18.0,0.0546
-16.0,17.542955326460483,3.1120059377782607,17.0,0.0582
-17.0,17.535885167464116,3.0670192356094175,17.0,0.0418
-18.0,18.079545454545453,3.2950430777605217,18.0,0.0352
-19.0,17.752,2.905597356826992,18.0,0.025
