x,mean,stdev,median,proportion
50.0,17.3266,2.958163693915563,17.0,1.0
49.0,17.402,3.0123738147846137,17.0,1.0
48.0,17.4068,2.961235174720179,17.0,1.0
47.0,17.3414,2.9210350973584416,17.0,1.0
46.0,17.361,2.9533504702286906,17.0,1.0
45.0,17.3692,2.8974629177955045,17.0,1.0
44.0,17.304,2.852014025210897,17.0,1.0
43.0,17.4102,2.9153277620192193,17.0,1.0
42.0,17.352,2.9438913023411812,17.0,1.0
41.0,17.3618,2.8870228194456815,17.0,1.0
40.0,17.3396,2.8880913835957687,17.0,1.0
39.0,17.3374,2.9040594415404315,17.0,1.0
38.0,17.3548,2.9166619550437898,17.0,1.0
37.0,17.411,2.9182321703386886,17.0,1.0
36.0,17.4026,2.9651497837377305,17.0,1.0
35.0,17.3508,2.937777963018916,17.0,1.0
34.0,17.3628,2.947673007645192,17.0,1.0
33.0,17.361472294458892,2.9048324432034365,17.0,0.9998
32.0,17.4072,2.9454690899753033,17.0,1.0
31.0,17.30092036814726,2.9339608729195352,17.0,0.9996
30.0,17.343274619695755,2.909713035576483,17.0,0.9992
29.0,17.393957583033213,2.944643930079064,17.0,0.9996
28.0,17.349939975990395,2.939940185737952,17.0,0.9996
27.0,17.357686148919136,2.926502093280954,17.0,0.9992
26.0,17.332264529058115,2.945024179357156,17.0,0.998
25.0,17.391269523428114,2.9756540946477017,17.0,0.9988
24.0,17.38405942581811,2.9266031309437435,17.0,0.9962
23.0,17.342960288808666,2.911364026468075,17.0,0.9972
22.0,17.428227263601688,2.9897634109256717,17.0,0.9962
21.0,17.31578947368421,2.841238354163246,17.0,0.9956
20.0,17.421667337897706,2.997818665764753,17.0,0.9932
19.0,17.45590312815338,2.9441870016366276,17.0,0.991
18.0,17.389203396684188,2.8827955533584073,17.0,0.9892
17.0,17.38209562563581,2.9658766145248054,17.0,0.983
16.0,17.490104060395836,3.0019639238178573,17.0,0.9802
15.0,17.510433715220948,2.9587130294461716,17.0,0.9776
14.0,17.51849555693325,2.964419947765685,17.0,0.9678
13.0,17.53125,3.012023410749653,17.0,0.9664
12.0,17.60885761589404,3.0410662265554724,17.0,0.9664
11.0,17.7502616705045,3.109173330151467,17.0,0.9554
10.0,17.8306822938468,3.1403616812826343,17.0,0.9556
9.0,17.865634156550858,3.1609449978292368,17.0,0.9556
8.0,18.03648563640176,3.2645195288269324,18.0,0.9538
7.0,18.308352522503665,3.417400484223849,18.0,0.9554
6.0,18.413481730365394,3.6318639333816938,18.0,0.9524
5.0,18.64912649968428,3.7605137502126547,18.0,0.9502
4.0,19.021480221182475,3.935324392304017,18.0,0.9404
3.0,19.182800540297162,4.013472526408258,19.0,0.8884
2.0,19.065111509869265,3.9253957156382278,19.0,0.7802
1.0,18.960759887885395,3.912666020304404,18.0,0.6422
0.0,18.977065661325792,4.037653665588635,18.0,0.6366
-1.0,18.717594322002242,3.7168407596387527,18.0,0.5354
-2.0,18.729190640583045,3.794531455290694,18.0,0.5214
-3.0,18.479485912011864,3.631227408060545,18.0,0.4046
-4.0,18.517275419545904,3.6589486080357374,18.0,0.4052
-5.0,18.303067484662577,3.4637726039518544,18.0,0.326
-6.0,18.344961240310077,3.5606403027296536,18.0,0.3096
-7.0,18.3493265993266,3.562575471618254,18.0,0.2376
-8.0,18.272134203168687,3.591765566032546,18.0,0.2146
-9.0,18.036057692307693,3.1556036598739836,18.0,0.1664
-10.0,17.97291196388262,3.3284039734245536,18.0,0.1772
-11.0,17.822764227642278,3.127554253898409,17.0,0.123
-12.0,18.085987261146496,3.2519853533943266,18.0,0.1256
-13.0,17.870246085011185,2.9653005449688394,17.0,0.0894
-14.0,17.83058823529412,2.9727398148711903,18.0,0.085
-15.0,17.70790378006873,3.0551470970406918,17.0,0.0582
-16.0,17.5078125,3.029789838395355,18.0,0.0512
-17.0,17.20855614973262,2.5676580708443906,17.0,0.0374
-18.0,17.272727272727273,2.782768702729813,17.0,0.0352
-19.0,17.448,2.951490470931593,17.0,0.025
