x,mean,stdev,median,proportion
16.0,11.027685185185183,9.062805595339466,9.746666666666666,0.0144
21.0,1.8377777777777773,6.349618439007784,1.666666666666666,0.0012
13.0,15.75254901960784,5.952548916265892,15.806666666666665,0.0068
17.0,11.355222222222217,8.782652606272727,9.746666666666666,0.012
23.0,-7.933333333333334,0.0,-7.933333333333334,0.0002
14.0,11.618830409356725,8.912086728714431,12.226666666666665,0.0114
19.0,4.607536231884057,6.706372859080813,3.1999999999999993,0.0046
15.0,11.682380952380951,8.685152741350583,11.263333333333332,0.014
20.0,6.525185185185185,6.592379272453861,6.199999999999999,0.0018
22.0,9.206666666666667,8.153638587907992,6.68,0.0008
18.0,10.290158730158728,10.772082989490782,12.219999999999997,0.0042
