x,mean,stdev,median,proportion
50.0,42.78056768558952,9.519222915653764,43.0,0.7328
49.0,42.80949766675817,9.546968300350507,43.0,0.7286
48.0,43.070953436807095,9.603327616417905,44.0,0.7216
47.0,43.16391668920747,9.540266251125777,44.0,0.7394
46.0,43.11408101405346,9.504632892466258,44.0,0.7258
45.0,42.92185357828352,9.583265168156135,44.0,0.7294
44.0,42.98300904357358,9.620832233724451,44.0,0.7298
43.0,42.868775790921596,9.60834698524125,43.0,0.727
42.0,42.99750415973378,9.49026674721465,43.0,0.7212
41.0,42.69173757891847,9.55526022077192,43.0,0.7286
40.0,43.032098765432096,9.541063435485448,43.0,0.729
39.0,42.77025557368135,9.600656838705019,43.0,0.7356
38.0,42.79917469050894,9.694528264617736,43.0,0.727
37.0,42.681270536692224,9.63187420990197,43.0,0.7304
36.0,42.851698425849214,9.638356616650311,43.0,0.7242
35.0,42.91172413793103,9.588524056343209,44.0,0.725
34.0,43.33572018727623,9.494664420747103,44.0,0.7262
33.0,42.89571746384872,9.38785298468767,43.0,0.7192
32.0,42.81445037953331,9.511775062737106,43.0,0.7114
31.0,43.15944827586207,9.585964436526918,44.0,0.725
30.0,43.068654266958426,9.543860626115041,44.0,0.7312
29.0,43.17955112219451,9.598097894953654,44.0,0.7218
28.0,43.10552763819096,9.528178411982818,44.0,0.7164
27.0,42.64110429447853,9.618331360846131,43.0,0.7172
26.0,42.770386863345394,9.592614301671016,43.0,0.7186
25.0,43.1005540166205,9.489409447369457,44.0,0.722
24.0,43.26838745489869,9.484484449692982,44.0,0.7206
23.0,43.22601398601399,9.406014750271332,44.0,0.715
22.0,43.09078173157747,9.5019513519786,44.0,0.7138
21.0,43.197210065645514,9.592729678031409,44.0,0.7312
20.0,43.091784702549575,9.404300471224875,44.0,0.706
19.0,43.16661943893454,9.47604439275669,44.0,0.7058
18.0,43.00628391888032,9.498295247662268,43.0,0.7002
17.0,43.28917378917379,9.379517731665608,44.0,0.702
16.0,43.10023174971031,9.267170650108227,44.0,0.6904
15.0,43.698614318706696,9.514838195465654,44.0,0.6928
14.0,43.64198250728863,9.477583719187761,44.0,0.686
13.0,43.479802383028186,9.335473966733387,44.0,0.6882
12.0,43.65033537474482,9.417532840014125,44.0,0.6858
11.0,44.0958503798948,9.348574169630524,45.0,0.6844
10.0,43.639655172413796,9.280373053871486,44.0,0.696
9.0,43.896541443053074,9.415017056698277,45.0,0.6708
8.0,44.20787545787546,9.334141723448761,45.0,0.6552
7.0,44.03529772866789,9.266150944901712,45.0,0.6516
6.0,44.153395061728396,9.235411630226826,45.0,0.648
5.0,43.99933311103701,9.394754921164814,45.0,0.5998
4.0,44.47940463828314,9.091264975206785,45.0,0.5778
3.0,44.08615384615385,9.400423508022255,45.0,0.52
2.0,44.835019797624284,9.010409300887256,46.0,0.4546
1.0,44.47510162601626,9.119542024555814,45.0,0.3936
0.0,44.277546777546775,9.101066568964228,45.0,0.3848
-1.0,44.2891077636153,9.312855566899975,45.0,0.3452
-2.0,44.394561933534746,9.292083205965561,45.0,0.331
-3.0,44.034170153417016,9.330717617469809,45.0,0.2868
-4.0,44.072649572649574,9.10310479514481,44.5,0.2808
-5.0,43.66609880749574,9.227722412958247,44.0,0.2348
-6.0,44.37339055793991,9.284098506082342,45.0,0.233
-7.0,44.09375,9.223925101107085,44.5,0.192
-8.0,44.58156028368794,9.1873544428593,45.0,0.1974
-9.0,44.05314009661836,9.200770672125742,45.0,0.1656
-10.0,44.02025316455696,9.257338925768062,45.0,0.158
-11.0,44.36486486486486,9.137450396938588,45.0,0.1332
-12.0,44.18608414239482,9.023306780143482,45.0,0.1236
-13.0,43.36542239685658,9.357769056642464,44.0,0.1018
-14.0,43.59692898272553,9.618176479136997,44.0,0.1042
-15.0,43.78409090909091,9.047411563078995,44.0,0.088
-16.0,44.22857142857143,9.47062880948756,45.0,0.091
-17.0,43.384375,9.27256064198962,44.0,0.064
-18.0,44.62571428571429,8.761273320932387,45.0,0.07
-19.0,43.63380281690141,9.45782251183348,45.0,0.0568
