x,mean,stdev,median,proportion
50.0,37.11379679144385,9.616134615460801,37.0,0.935
49.0,37.45960884353742,9.780024476378424,37.0,0.9408
48.0,37.297682330427385,9.542202830481468,37.0,0.9406
47.0,37.24904862579281,9.707613680276971,37.0,0.946
46.0,37.40050697084918,9.845947300233027,37.0,0.9468
45.0,37.233092301148446,9.788257303392603,36.5,0.9404
44.0,37.14765243254727,9.671976976603192,37.0,0.9414
43.0,37.3146186440678,9.70599359771963,37.0,0.944
42.0,37.29668930390493,9.562936335053664,37.0,0.9424
41.0,37.403290445053784,9.663139896403647,37.0,0.9482
40.0,37.361774023231256,9.612505945864653,37.0,0.947
39.0,37.41110404746768,9.66403707883696,37.0,0.9438
38.0,37.38040712468193,9.634340412620002,37.0,0.9432
37.0,37.37988945578231,9.689921932740717,37.0,0.9408
36.0,37.32543241511851,9.635731879255049,36.0,0.9366
35.0,37.55323679727427,9.713317080453345,37.0,0.9392
34.0,37.43367886608843,9.602893382339005,37.0,0.9454
33.0,37.067581837381205,9.555842364603759,37.0,0.947
32.0,37.2365977205572,9.714799365436804,37.0,0.9476
31.0,37.287566418703506,9.726525435798736,37.0,0.941
30.0,37.5496589940324,9.698804092334425,37.0,0.9384
29.0,37.306441393875396,9.62593243237821,37.0,0.947
28.0,37.33518835616438,9.717489429924093,37.0,0.9344
27.0,37.3373544973545,9.560791370260848,37.0,0.945
26.0,37.1767204757859,9.662672537224271,37.0,0.9416
25.0,37.59300106044539,9.673503172798625,37.0,0.943
24.0,37.50308051837688,9.703931439904816,37.0,0.9414
23.0,37.411191182704535,9.696740045427385,37.0,0.9436
22.0,37.25307333615939,9.74437839084444,37.0,0.9436
21.0,37.01641091219096,9.593082105772847,36.0,0.9384
20.0,37.31242105263158,9.646317728410732,37.0,0.95
19.0,37.187712585034014,9.697631576993812,37.0,0.9408
18.0,37.153469561515536,9.739086068802516,37.0,0.9396
17.0,37.32364793213149,9.605739196172893,37.0,0.943
16.0,37.2283481199831,9.665488277486329,37.0,0.9468
15.0,37.636324968098684,9.711645603864449,37.0,0.9404
14.0,37.35195412064571,9.692092836745504,37.0,0.9416
13.0,37.30289484887186,9.623035154421824,37.0,0.9396
12.0,37.21844453888653,9.68796466622356,37.0,0.9412
11.0,37.48832271762208,9.618992820287644,37.0,0.942
10.0,37.54730158730159,9.59354586939566,37.0,0.945
9.0,37.45104299702001,9.618491395874265,37.0,0.9396
8.0,37.658941101424624,9.696927023060296,37.0,0.9406
7.0,37.22072936660269,9.729926759775754,37.0,0.9378
6.0,37.457995735607675,9.821783209134223,37.0,0.938
5.0,37.41380042462845,9.607416002478093,37.0,0.942
4.0,37.59347687060328,9.763585284658248,37.0,0.9382
3.0,37.45587602238485,9.693855030473026,37.0,0.9292
2.0,37.19357620176762,9.593687393467675,37.0,0.9278
1.0,37.800218102508175,9.73096105253054,37.0,0.917
0.0,37.53846153846154,9.730498559133363,37.0,0.9178
-1.0,37.57282199068943,9.528752507928939,37.0,0.9022
-2.0,37.31547487270312,9.532084040076887,37.0,0.9034
-3.0,37.34381361682877,9.707709811803609,37.0,0.8842
-4.0,37.393823264201984,9.709404757648356,37.0,0.8872
-5.0,37.51746106654082,9.617952184286679,37.0,0.8476
-6.0,37.43185589002133,9.546025762675805,37.0,0.8438
-7.0,37.51474597273854,9.734567395770895,37.0,0.807
-8.0,37.439121756487026,9.757503199577549,37.0,0.8016
-9.0,37.4296875,9.372408383706102,37.0,0.7424
-10.0,37.63700680272109,9.77045062044143,37.0,0.735
-11.0,37.60954013139103,9.702858134202947,37.0,0.7002
-12.0,37.52609308885754,9.65710911123288,37.0,0.709
-13.0,37.83394049787493,9.629161673752506,37.0,0.6588
-14.0,37.71399237312995,9.717182022003733,37.0,0.6818
-15.0,37.59119696010133,9.612821869379909,37.0,0.6316
-16.0,37.84336973478939,9.819357042711632,37.0,0.641
-17.0,37.869051636854536,9.713221555098706,37.0,0.5926
-18.0,38.16137836915728,9.89581807106388,38.0,0.5862
-19.0,37.712087087087085,9.675946361282161,37.0,0.5328
