x,mean,stdev,median,proportion
13.0,15.532549019607844,7.078243525832928,16.273333333333333,0.0034
14.0,12.440653594771243,8.808686271015665,13.213333333333333,0.0102
17.0,8.19349206349206,6.953425631811473,9.633333333333333,0.0084
23.0,5.199999999999999,0.0,5.199999999999999,0.0002
24.0,-4.933333333333334,0.0,-4.933333333333334,0.0002
16.0,9.321111111111106,9.454109653363592,10.206666666666667,0.0132
19.0,2.3870175438596486,9.7632217081504,2.4066666666666654,0.0038
15.0,11.413703703703701,8.957052734576607,11.27,0.0144
20.0,14.633333333333331,4.822443322213293,15.36,0.0022
21.0,9.763333333333332,0.4833333333333325,9.763333333333332,0.0004
18.0,10.399569892473115,8.043681985676217,9.266666666666666,0.0062
