x,mean,stdev,median,proportion
35.0,-2.0,4.207136793592526,-2.0,0.0002
41.0,-1.8,4.166533331199932,-1.0,0.00005
47.0,-2.0,3.0,-2.0,0.00002
40.0,-3.2857142857142856,3.010186786529354,-5.0,0.00007
53.0,-6.0,0.0,-6.0,0.00001
43.0,-6.857142857142857,4.421653583012046,-6.0,0.00007
33.0,-1.2926829268292683,4.870237648526317,0.0,0.00041
42.0,-4.75,4.8326148891326595,-2.5,0.00012
22.0,-1.031413612565445,4.4154722718978165,-1.0,0.00191
25.0,-0.7466666666666667,4.308420695439212,-1.0,0.0015
45.0,-0.6666666666666666,3.2998316455372216,0.0,0.00006
14.0,19.12213106241562,12.628832911034873,18.0,0.19258
39.0,-3.0,5.612486080160912,-4.5,0.00004
44.0,-7.0,4.636809247747852,-7.5,0.00004
37.0,-4.421052631578948,5.402882169182669,-5.0,0.00019
23.0,-1.1105769230769231,4.689624764988189,-1.0,0.00208
30.0,-2.208955223880597,3.4921545905876306,-3.0,0.00067
27.0,-0.9904761904761905,4.5721626394753345,-1.0,0.00105
13.0,22.279466888796335,13.413011144894588,22.0,0.16807
16.0,13.006871502895848,11.066437412620253,12.0,0.10187
48.0,-1.0,5.0,-1.0,0.00002
50.0,-4.333333333333333,3.858612300930075,-6.0,0.00003
29.0,-2.3035714285714284,4.131411220572142,-3.0,0.00056
31.0,-2.4324324324324325,4.439019495707635,-3.0,0.00037
46.0,-4.75,4.322904116447646,-3.0,0.00004
49.0,-9.0,2.0,-9.0,0.00002
57.0,1.0,0.0,1.0,0.00001
51.0,-6.0,1.0,-6.0,0.00002
17.0,9.861890126776796,10.485283203120028,9.0,0.05206
26.0,-1.101010101010101,4.33098992462124,-1.0,0.00099
32.0,-3.658536585365854,4.021950479965616,-4.0,0.00041
11.0,29.053206997084548,14.902479783892979,28.0,0.02744
24.0,-1.1257861635220126,4.128048160408418,-1.0,0.00159
38.0,-1.2307692307692308,4.869905166567511,0.0,0.00013
15.0,15.845761430910693,11.866079116125277,15.0,0.15878
34.0,-4.75,3.6996621467371855,-4.5,0.0002
20.0,1.6694045174537988,6.618649236454201,1.0,0.00487
12.0,25.65928975810602,14.098631497337545,25.0,0.09715
19.0,4.138947368421053,8.681963090366903,3.0,0.0095
59.0,0.0,0.0,0.0,0.00001
36.0,-3.6,2.8,-4.0,0.00015
21.0,-0.18394648829431437,4.752356550852869,0.0,0.00299
28.0,-1.8860759493670887,3.485911397714048,-2.0,0.00079
18.0,7.015597147950089,9.516578416130779,6.0,0.02244
