x,mean,stdev,median,proportion
15.0,13.171816591203807,8.127624077764462,13.0,0.20245
10.0,22.329323971116928,8.420258401339927,22.131777777777778,1.0
12.0,16.336047917670435,8.59175782180291,16.066666666666666,0.86375
13.0,14.869815019490481,8.426932978470033,14.146666666666667,0.62248
22.0,9.021403508771929,8.764968170849855,7.0,0.00019
23.0,14.52,4.968057970676268,17.466666666666665,0.00005
11.0,18.746692548889953,8.730810448084403,18.14666666666667,1.0
24.0,8.022222222222222,6.676733140698284,6.066666666666666,0.00003
7.0,33.07668374220538,7.369612201519644,33.17177777777778,1.0
0.0,57.584296800027595,3.3590157888287595,57.502,1.0
3.0,47.21686272221787,5.5259249941134,46.410222222222224,1.0
2.0,50.718430211091025,4.963257022059427,50.39533333333333,1.0
4.0,43.702994197740296,6.051771236410078,43.330222222222226,1.0
8.0,29.495057684432812,7.751781758171444,29.198444444444444,1.0
9.0,25.911412257777727,8.097411554336764,25.559999999999995,1.0
14.0,13.899868087639794,8.246056157560325,13.146666666666667,0.37877
17.0,12.226707842512893,7.986090092236288,12.0,0.04188
18.0,12.010350891301476,7.673194093074331,12.0,0.01658
6.0,36.63592569777825,6.955325957218234,36.263555555555556,1.0
16.0,12.739978861281237,8.04570590864564,12.066666666666666,0.09619
19.0,11.334260964912266,7.929136792519718,11.059999999999999,0.00608
5.0,40.18449582221357,6.533915656575572,40.263555555555556,1.0
1.0,54.18296734001088,4.256049237535973,53.461999999999996,1.0
20.0,11.202680776014104,7.751640063730865,10.866666666666667,0.00189
21.0,10.033678160919541,7.625316014798232,9.0,0.00058
25.0,2.0,0.0,2.0,0.00001
