x,mean,stdev,median,proportion
22.0,4.0,0.0,4.0,0.00001
21.0,3.6,4.644710252893428,3.0,0.00015
19.0,3.67687074829932,5.953419734431161,3.0,0.00294
16.0,9.573005519317611,9.893718394583473,8.0,0.07972
18.0,5.867943548387097,7.830983013936053,5.0,0.00992
11.0,25.72690608795852,14.892403682137438,25.0,0.05207
12.0,21.897356513455584,14.094653832164985,21.0,0.16796
14.0,15.137239366138449,12.243899172283038,14.0,0.2398
15.0,12.162106317700832,11.066330560629563,10.0,0.15971
13.0,18.32472050660621,13.29917933004184,17.0,0.25582
17.0,7.68545803971813,8.9112845812247,6.0,0.03122
20.0,2.1911764705882355,5.278305635393127,2.0,0.00068
