x,mean,stdev,median,proportion
19.0,5.503915922833334,9.272628208664294,5.066666666666666,0.27784
25.0,2.686007971470486,8.071497210043487,3.0,0.03178
8.0,34.5397775333355,10.308837649138042,33.94,1.0
39.0,1.6308333333333322,7.650351798374301,2.1666666666666665,0.0008
44.0,-2.211764705882353,7.114570717454166,-5.0,0.00017
13.0,20.062979486638344,11.263168247451329,19.133333333333333,0.9831
40.0,0.38362573099415126,7.625762027705663,-0.7333333333333334,0.00057
42.0,0.43232323232323144,7.357556343197944,-1.7333333333333334,0.00033
4.0,46.68195020444604,8.835020987657055,45.46666666666667,1.0
43.0,0.30933333333333296,5.996499126805388,2.0,0.00025
10.0,28.73312673332802,10.974938711911221,28.2,1.0
48.0,2.3866666666666667,7.313111512892443,2.2666666666666666,0.00005
28.0,2.201252158894683,7.6472059939839445,2.2666666666666666,0.01544
2.0,52.757724015551375,7.236457814329887,51.49688888888888,1.0
11.0,25.838849666658383,11.21076805812978,25.133333333333333,1.0
9.0,31.62154819999712,10.65008340737132,31.266666666666662,1.0
0.0,58.32119726669575,4.457281558733817,56.51533333333333,1.0
34.0,1.4670465337131973,7.11736191493009,2.0,0.00351
33.0,1.9866372980910427,7.372193632932321,2.0666666666666664,0.00454
38.0,1.1152103559870539,6.9833532631718604,1.2666666666666666,0.00103
49.0,-1.8666666666666671,7.913645037388131,-4.733333333333333,0.00005
21.0,3.092239174783746,8.765627989743075,3.0,0.11601
36.0,1.2628070175438604,7.920842832993218,1.6666666666666665,0.0019
24.0,2.5870281509916584,8.236560895056058,2.533333333333333,0.04168
35.0,1.2050505050505047,7.757451598333018,1.2666666666666666,0.00264
1.0,55.61787847556306,6.064343400312642,54.542,1.0
45.0,-1.2500000000000002,6.151851573126401,-1.3666666666666667,0.00012
37.0,1.3902777777777782,7.79709097680778,2.0666666666666664,0.00144
30.0,1.9317294281729331,7.534484319403283,2.2666666666666666,0.00956
29.0,2.497613030047763,7.474443644251719,3.0666666666666664,0.01187
15.0,14.616788802451048,10.762177450012578,14.066666666666666,0.85233
50.0,-0.18333333333333357,7.4095096553910595,0.5,0.00004
5.0,43.50349958222643,9.251077157865664,42.486666666666665,1.0
47.0,3.1866666666666665,9.39838283961661,3.2666666666666666,0.00005
23.0,2.650122263970903,8.4150631041567,2.2666666666666666,0.05589
46.0,3.488888888888889,4.827953583296875,0.7666666666666666,0.00006
51.0,-9.0,0.0,-9.0,0.00001
3.0,49.785934226667166,8.165558965995295,48.53688888888889,1.0
17.0,9.52912745599629,9.934478464485785,9.066666666666666,0.56681
22.0,2.68399136727175,8.5884650345183,2.2666666666666666,0.07877
18.0,7.365606256664292,9.611643068582637,7.066666666666666,0.40959
26.0,2.3956388778087843,7.7895277167245345,2.2666666666666666,0.02507
32.0,1.8230240549828178,7.379653556694421,2.2666666666666666,0.00582
41.0,0.4587301587301584,7.281290111586713,0.7666666666666666,0.00042
16.0,12.017268456280256,10.362175192034305,11.2,0.72157
12.0,22.950168377150312,11.301821742924483,22.133333333333333,0.99776
7.0,37.453771400007874,9.935535854278305,36.49333333333333,1.0
31.0,1.9179419525065917,7.495505385419432,2.0666666666666664,0.00758
6.0,40.41724953334273,9.602081180280962,39.48,1.0
14.0,17.302438405474476,11.06878332829703,16.266666666666666,0.94056
27.0,2.1771139240506754,7.761656158706121,2.2666666666666666,0.01975
20.0,3.987600858686872,8.96610876628454,3.2666666666666666,0.18012
