x,mean,stdev,median,proportion
40.0,14.226452905811623,1.679025480175754,14.0,0.998
39.0,14.221628838451268,1.654467437099735,14.0,0.9986666666666667
38.0,14.233601070950469,1.630013269021952,14.0,0.996
37.0,14.17446524064171,1.619868403455573,14.0,0.9973333333333333
36.0,14.239812959251838,1.6898666803075104,14.0,0.998
35.0,14.127673796791443,1.5947386557748353,14.0,0.9973333333333333
34.0,14.22958500669344,1.6886605717478425,14.0,0.996
33.0,14.133110367892977,1.6439838708916952,14.0,0.9966666666666667
32.0,14.259060402684563,1.677726706705162,14.0,0.9933333333333333
31.0,14.130376344086022,1.6789947928088043,14.0,0.992
30.0,14.222745625841185,1.7013317556640164,14.0,0.9906666666666667
29.0,14.302027027027027,1.783178516271198,14.0,0.9866666666666667
28.0,14.254065040650406,1.806290875655682,14.0,0.984
27.0,14.289083557951482,1.7851180156911892,14.0,0.9893333333333333
26.0,14.256237356709374,1.7440061701566543,14.0,0.9886666666666667
25.0,14.364737550471062,1.7965707291077715,14.0,0.9906666666666667
24.0,14.503698722259584,1.8946229895097844,14.0,0.9913333333333333
23.0,14.48953409858204,1.9635585828430424,14.0,0.9873333333333333
22.0,14.451482479784367,1.9676471402568536,14.0,0.9893333333333333
21.0,14.53799185888738,1.9768628533044326,14.0,0.9826666666666667
20.0,14.593771157752201,1.9816802631358474,14.0,0.9846666666666667
19.0,14.67866847826087,2.1608249654698306,14.0,0.9813333333333333
18.0,14.59026369168357,2.0622004234106943,14.0,0.986
17.0,14.800687285223368,2.204057382067607,14.0,0.97
16.0,14.777013076393668,2.171223966942604,14.0,0.9686666666666667
15.0,14.917987594762232,2.387833930126057,15.0,0.9673333333333334
14.0,15.172721041809458,2.37078319387074,15.0,0.9726666666666667
13.0,15.180373185901866,2.4778106625946963,15.0,0.9646666666666667
12.0,15.314622314622314,2.6907043943954587,15.0,0.962
11.0,15.38626907073509,2.5539732891012803,15.0,0.9613333333333334
10.0,15.579056865464633,2.7117005833299097,15.0,0.9613333333333334
9.0,15.681850035038542,2.6881295701248535,15.0,0.9513333333333334
8.0,15.946289752650177,2.981677619799103,15.0,0.9433333333333334
7.0,16.11024734982332,3.2010158958794896,16.0,0.9433333333333334
6.0,16.318466898954703,3.08502741726563,16.0,0.9566666666666667
5.0,16.562978427279052,3.228865811319761,16.0,0.958
4.0,16.982905982905983,3.402026141676995,16.0,0.936
3.0,17.154662623199393,3.722200351242476,16.0,0.8793333333333333
2.0,17.40753424657534,3.699548021569078,17.0,0.7786666666666666
1.0,17.359133126934985,3.7572113904098674,17.0,0.646
0.0,17.23451776649746,3.8137909509039893,16.0,0.6566666666666666
-1.0,17.29374201787995,3.900492704883912,16.0,0.522
-2.0,16.797966963151207,3.5228202768304206,16.0,0.5246666666666666
-3.0,16.91275167785235,3.5373043350085593,16.0,0.3973333333333333
-4.0,16.95292207792208,3.767951564700399,16.0,0.4106666666666667
-5.0,16.837004405286343,3.677511825821299,16.0,0.30266666666666664
-6.0,17.257142857142856,3.8876853436511816,16.0,0.30333333333333334
-7.0,16.835616438356166,3.7226213279771825,16.0,0.24333333333333335
-8.0,16.91304347826087,3.7868541892029,16.0,0.23
-9.0,16.6,3.507864917449042,16.0,0.14333333333333334
-10.0,16.669260700389106,3.495904863594517,16.0,0.17133333333333334
-11.0,16.38888888888889,3.5193468810470794,16.0,0.108
-12.0,16.01290322580645,3.220873647809068,15.0,0.10333333333333333
-13.0,16.07936507936508,3.531273376611878,15.0,0.084
-14.0,16.223140495867767,3.238425296613851,15.0,0.08066666666666666
-15.0,15.441176470588236,2.568945497447957,15.0,0.04533333333333334
-16.0,15.8125,3.1764514398932655,15.0,0.042666666666666665
-17.0,15.60377358490566,2.5722732229764906,15.0,0.035333333333333335
-18.0,14.4,3.081743476855732,14.0,0.023333333333333334
-19.0,15.6,2.683281572999748,15.0,0.016666666666666666
