x,mean,stdev,median,proportion
40.0,14.275333333333334,1.9416981113333727,14.0,1.0
39.0,14.287525016677785,1.917072748704075,14.0,0.9993333333333333
38.0,14.192795196797865,1.853054415245498,14.0,0.9993333333333333
37.0,14.216144096064042,1.914790804361263,14.0,0.9993333333333333
36.0,14.30173564753004,1.9191981190342,14.0,0.9986666666666667
35.0,14.265510340226818,1.9190291916536246,14.0,0.9993333333333333
34.0,14.198799199466311,1.8960226335473813,14.0,0.9993333333333333
33.0,14.3475935828877,1.8845791557224083,14.0,0.9973333333333333
32.0,14.26185704742819,1.9239641284443172,14.0,0.998
31.0,14.269513008672448,1.9583925459179043,14.0,0.9993333333333333
30.0,14.22013422818792,1.9455328238197331,14.0,0.9933333333333333
29.0,14.187959866220735,1.8484709902332164,14.0,0.9966666666666667
28.0,14.332663989290495,1.992903406464666,14.0,0.996
27.0,14.270651443922095,1.9382556856153614,14.0,0.9926666666666667
26.0,14.225654801880456,1.9114339053685439,14.0,0.9926666666666667
25.0,14.338047138047138,1.96609310874539,14.0,0.99
24.0,14.324614352783367,1.9971284975138757,14.0,0.994
23.0,14.38492597577389,1.9721858567943829,14.0,0.9906666666666667
22.0,14.259634888438134,1.9168482207289035,14.0,0.986
21.0,14.436018957345972,2.037429678865775,14.0,0.9846666666666667
20.0,14.393877551020408,2.045227545506216,14.0,0.98
19.0,14.501362397820163,2.0302543556847263,14.0,0.9786666666666667
18.0,14.462585034013605,2.1335420035388317,14.0,0.98
17.0,14.464065708418891,2.085339368165026,14.0,0.974
16.0,14.570543702684102,2.184223490791464,14.0,0.9686666666666667
15.0,14.624743677375257,2.1548058289660736,14.0,0.9753333333333334
14.0,14.75631399317406,2.260206897346884,14.0,0.9766666666666667
13.0,14.869655172413793,2.4858724726058656,14.0,0.9666666666666667
12.0,15.022680412371134,2.479088008012627,15.0,0.97
11.0,15.154711673699016,2.6874144649046654,15.0,0.948
10.0,15.342618384401113,2.847741586113045,15.0,0.9573333333333334
9.0,15.625959525471039,3.0583433873103747,15.0,0.9553333333333334
8.0,15.82373595505618,3.0217792916729724,15.0,0.9493333333333334
7.0,16.179324894514767,3.3934735234089968,16.0,0.948
6.0,16.584561403508772,3.765033990282698,16.0,0.95
5.0,16.92088827203331,3.9547212855302543,16.0,0.9606666666666667
4.0,17.310549777117384,4.109043969419023,17.0,0.8973333333333333
3.0,17.59883236030025,4.356701659000933,17.0,0.7993333333333333
2.0,17.664652567975832,4.313183764277484,17.0,0.662
1.0,17.390849673202613,4.223825349756428,17.0,0.51
0.0,17.505913272010513,4.049338193242635,17.0,0.5073333333333333
-1.0,17.557522123893804,4.482686562306381,16.0,0.37666666666666665
-2.0,17.536672629695886,4.5645829155975965,17.0,0.37266666666666665
-3.0,17.136950904392766,4.520336362729541,16.0,0.258
-4.0,17.054761904761904,4.501253919528717,16.0,0.28
-5.0,17.174418604651162,4.552514920770708,16.0,0.172
-6.0,17.004273504273506,4.202662834388977,16.0,0.156
-7.0,16.810526315789474,4.547514617532958,16.0,0.12666666666666668
-8.0,16.74846625766871,4.0081872626284625,16.0,0.10866666666666666
-9.0,17.305555555555557,5.294053850579866,16.0,0.072
-10.0,16.4390243902439,4.0668126219244645,15.0,0.082
-11.0,16.350877192982455,3.8547816197283638,16.0,0.038
-12.0,15.328947368421053,3.5776652115102903,15.0,0.050666666666666665
-13.0,15.67741935483871,3.5685643338444497,14.0,0.020666666666666667
-14.0,14.866666666666667,3.480740661921763,14.0,0.03
-15.0,15.529411764705882,3.3801783290726215,14.0,0.011333333333333334
-16.0,15.714285714285714,3.493434074467853,15.0,0.014
-17.0,15.444444444444445,2.7532248207475263,16.0,0.006
-18.0,14.5,1.8027756377319946,14.0,0.006666666666666667
-19.0,15.0,0.0,15.0,0.0026666666666666666
