x,mean,stdev,median,proportion
25.0,2.6819351975145262,6.256646129926972,1.5333333333333332,0.02253
51.0,1.172860419975274,4.863103511750566,0.5333333333333332,0.01889
30.0,1.6747515580259196,5.17330682086263,1.5333333333333332,0.01979
11.0,23.459945199992298,11.417503172103874,22.206666666666663,1.0
26.0,2.41894115820531,5.840681944036724,1.5333333333333332,0.02147
39.0,1.3608665269042406,4.905129912527778,0.5333333333333332,0.01908
35.0,1.4649368621345584,4.8712699644419635,0.7999999999999998,0.01927
48.0,1.1155649568129542,4.853489805347568,0.5333333333333332,0.01891
8.0,32.37668100000446,10.570187155865213,31.346666666666664,1.0
56.0,1.0542791600493864,4.793154290315294,0.5333333333333332,0.01889
28.0,1.9752203721841137,5.302702375615219,1.5333333333333332,0.02042
4.0,45.527419197776204,8.759462104006596,44.459999999999994,1.0
0.0,57.8036066000268,4.056656997051144,56.51533333333333,1.0
40.0,1.4119622245540173,4.953230870492722,0.5333333333333332,0.01906
5.0,42.04288340667103,9.21244151714065,41.03999999999999,1.0
1.0,55.07720387554408,5.728336432761222,53.49022222222222,1.0
50.0,1.2925004411505001,4.8794206807779785,0.5333333333333332,0.01889
7.0,35.52557840000527,10.13449636389957,34.42,1.0
17.0,10.918119362056267,10.037473325742809,9.533333333333331,0.23095
49.0,1.290912299276494,4.917487786785319,0.5333333333333332,0.01889
14.0,16.28547042587653,11.166527687139851,15.066666666666666,0.76328
16.0,12.464100968551971,10.480643443289708,11.066666666666666,0.37926
33.0,1.4973936899862605,4.844412595887349,0.7999999999999998,0.01944
58.0,1.367143109228847,4.855871077468373,0.5333333333333332,0.01889
9.0,29.289320933337994,10.965823670384966,28.273333333333333,1.0
55.0,1.2713252161637343,4.865456863696724,0.5333333333333332,0.01889
29.0,1.704326205867707,5.202861309166769,0.5333333333333332,0.02011
24.0,3.0752597584949477,6.624433844672474,2.533333333333333,0.02374
18.0,9.61897983392653,9.68642867075806,8.266666666666666,0.13207
54.0,1.2125639668254613,4.839647861188846,0.5333333333333332,0.01889
34.0,1.4873943783410726,4.937370620875044,0.5333333333333332,0.01933
6.0,38.71486378445299,9.65420139377767,37.54,1.0
31.0,1.4832654446707194,4.9242979881949305,0.5333333333333332,0.01964
57.0,1.1130404093876645,4.8638349796076294,0.5333333333333332,0.01889
42.0,1.1684192078513624,4.761655609595851,0.5333333333333332,0.01902
2.0,52.32042960222169,7.014329281233017,51.45177777777778,1.0
46.0,1.196585709257284,4.8076901790704225,0.5333333333333332,0.01894
23.0,3.855945875618074,6.998966969053307,2.533333333333333,0.02562
36.0,1.4160152857390786,4.92034312969361,0.5333333333333332,0.01919
52.0,1.0998058937709336,4.94543658940114,0.5333333333333332,0.01889
32.0,1.5185867895545104,4.972588098773103,0.5333333333333332,0.01953
15.0,14.26364222062643,10.831714268114101,13.0,0.57119
38.0,1.365132496513231,4.940906252559081,0.5333333333333332,0.01912
53.0,1.339085936121382,4.855647409937022,0.5333333333333332,0.01889
47.0,1.179834302837983,4.973722116758969,0.5333333333333332,0.01891
20.0,7.103804864791254,8.909679634760424,5.533333333333333,0.04906
41.0,1.4151770066596356,4.857521915742168,0.5333333333333332,0.01902
12.0,20.831064377259676,11.484565684682245,19.4,0.98192
44.0,1.1742536002809745,4.769528204509063,0.5333333333333332,0.01898
37.0,1.3544299390774377,4.886502782603848,0.5333333333333332,0.01915
22.0,4.717607897153318,7.845508719799921,3.533333333333333,0.02904
19.0,8.285526770293625,9.289549105979532,7.0,0.0772
45.0,1.2562642769284607,4.940350291713818,0.5333333333333332,0.01897
43.0,1.2688432508337517,4.735463200922101,0.5333333333333332,0.01899
13.0,18.417996305732878,11.38277294394031,17.133333333333333,0.90952
3.0,49.5600168400035,8.089138920621918,48.825111111111106,1.0
27.0,2.0366538952745845,5.465586991924178,1.5333333333333332,0.02088
21.0,5.9534774875969765,8.450621422813498,4.533333333333333,0.03561
10.0,26.32564766666657,11.250047699388702,25.266666666666666,1.0
59.0,0.9722251632256736,4.917351895986821,0.5333333333333332,0.01889
