x,mean,stdev,median,proportion
18.0,11.531428710539904,6.398915607185874,11.2,0.82151
34.0,4.803057556290734,4.934016002604065,4.533333333333333,0.5137
29.0,5.9995390881819075,5.210871918704982,6.133333333333333,0.55976
33.0,5.017407742042849,4.972721642354083,5.133333333333333,0.52019
11.0,21.096865933309388,8.842171836995501,20.2,1.0
31.0,5.462438909278697,5.094803686138549,5.333333333333333,0.53677
3.0,47.557763944446776,6.651265173034968,46.498444444444445,1.0
44.0,3.532385243981626,4.650001882730424,3.133333333333333,0.48378
48.0,3.166411959442006,4.592352844736395,2.533333333333333,0.48029
8.0,29.96386259999804,9.417707095412553,29.266666666666662,1.0
46.0,3.3285139061855937,4.63522346237962,2.533333333333333,0.4818
52.0,2.967473354233456,4.573011875885447,2.133333333333333,0.4785
6.0,36.94342453778402,8.429979277796257,36.346666666666664,1.0
7.0,33.45662159999938,9.000682628614987,32.47333333333333,1.0
41.0,3.7680364174906966,4.732211005949761,3.333333333333333,0.48841
58.0,2.6902263202035432,4.505332516175959,1.5333333333333332,0.4772
38.0,4.145022116457339,4.793476343864284,3.8,0.49586
12.0,19.00172479995481,8.390726890004814,18.2,0.99656
4.0,43.98753479777574,7.294201105813002,43.42666666666666,1.0
40.0,3.9237279843442523,4.739391127926815,3.533333333333333,0.49056
26.0,7.071972930368302,5.456736407818044,7.133333333333333,0.60683
2.0,50.977609773331274,5.933505530290345,50.44511111111111,1.0
43.0,3.621716130805261,4.692663589907034,3.333333333333333,0.4852
42.0,3.6738987832350936,4.704881326088333,3.333333333333333,0.48681
50.0,3.0692912181156258,4.587621657291577,2.333333333333333,0.47932
28.0,6.309018541439732,5.279012123193599,6.199999999999999,0.57367
32.0,5.19998862947244,5.031041311296528,5.133333333333333,0.52768
51.0,3.020753640136026,4.568873500258422,2.333333333333333,0.47892
54.0,2.8557640937673585,4.510000968492803,1.7999999999999998,0.47793
5.0,40.44224264223009,7.877005436042096,39.486666666666665,1.0
30.0,5.721682351150437,5.155280224310468,5.533333333333333,0.54725
35.0,4.618176209603043,4.880986972264837,4.333333333333333,0.50788
36.0,4.423346251945789,4.830577406953133,4.133333333333333,0.50315
9.0,26.616786133329853,9.508313632931108,25.266666666666666,1.0
56.0,2.786682024434975,4.543630758267986,1.7999999999999998,0.4775
45.0,3.4282629866769123,4.65453665502536,2.5999999999999996,0.48261
37.0,4.271473781195884,4.8228906590970695,4.133333333333333,0.49926
47.0,3.2943493779678046,4.6268068772372235,2.533333333333333,0.48095
21.0,9.488938428583412,5.986761582599046,9.2,0.72669
49.0,3.1360565200184483,4.596765782976082,2.3999999999999995,0.47983
27.0,6.658456664406276,5.384010733555583,6.3999999999999995,0.5892
10.0,23.610451333321915,9.267833759686798,22.266666666666666,1.0
17.0,12.413713978913364,6.595743359641792,12.133333333333333,0.85679
55.0,2.8058194302003203,4.525235623568471,1.7999999999999998,0.47771
0.0,57.6298892000292,3.7502609530052258,56.51533333333333,1.0
14.0,15.777568843575231,7.508287639495962,15.2,0.9616
13.0,17.273245785957993,7.927948840790229,16.2,0.98461
15.0,14.492081215342967,7.138066496327097,14.133333333333333,0.92856
19.0,10.776584280684393,6.212918860677111,10.399999999999999,0.78816
1.0,54.332978511104415,5.0050308594326465,53.49022222222222,1.0
57.0,2.75535631991517,4.49817255702068,1.7999999999999998,0.47738
59.0,2.680815619193755,4.510879905706696,1.5333333333333332,0.47702
20.0,10.117489872473724,6.074062565957355,10.133333333333333,0.75619
23.0,8.362593474168852,5.771747092752117,8.2,0.6722
24.0,7.8742729858943745,5.684748596125048,8.133333333333333,0.64797
16.0,13.389614889292444,6.833846593005798,13.133333333333333,0.89299
22.0,8.905406604735107,5.858691205029702,9.133333333333333,0.69859
25.0,7.467256288684868,5.582970240701936,7.333333333333333,0.62639
53.0,2.9179117171396034,4.561436642988651,1.7999999999999998,0.47816
39.0,4.006617870683657,4.766174718390243,3.533333333333333,0.49321
