x,mean,stdev,median,proportion
18.0,7.771527979124384,7.912209737524303,7.0,0.03449
13.0,7.679052018477606,8.167957532465708,7.0,0.19916
25.0,7.5,6.020797289396148,6.0,0.00004
14.0,7.838801919255562,8.221706918451176,7.0,0.20633
16.0,7.901139031388575,7.989225175250181,7.0,0.11501
22.0,6.397260273972603,7.099565346578596,6.0,0.00073
12.0,7.3919821826280625,8.183893928165244,7.0,0.1347
11.0,7.3142683912691995,8.133837928839151,6.0,0.04948
20.0,7.655172413793103,7.055571836200858,7.0,0.0058
23.0,6.565217391304348,8.117753421046672,9.0,0.00023
17.0,7.712420285453994,7.840570167001709,7.0,0.06586
21.0,6.6909090909090905,7.068811722881982,6.0,0.0022
24.0,6.857142857142857,4.763809143009447,7.0,0.00007
19.0,7.84351914036266,7.42332826466581,7.0,0.01489
15.0,7.773814396818899,8.072297411704284,7.0,0.17101
