x,mean,stdev,median,proportion
27.0,-2.769230769230769,3.8461538461538463,-1.0,0.00013
31.0,-2.4,2.576819745345025,-2.0,0.00005
38.0,-7.0,1.0,-7.0,0.00002
30.0,-4.25,2.947456530637899,-3.5,0.00004
45.0,-4.0,0.0,-4.0,0.00001
40.0,-7.666666666666667,5.9066817155564495,-4.0,0.00003
32.0,-2.4444444444444446,7.104163272509235,-3.0,0.00009
18.0,8.390778871978513,9.5714307915243,7.0,0.02234
16.0,11.8640673374613,11.006383660838834,11.0,0.10336
14.0,16.953788188297246,12.503020573582178,16.0,0.22029
34.0,-1.4,5.2,0.0,0.00005
13.0,19.83265901392548,13.227756782508513,19.0,0.21256
19.0,7.301675977653631,9.225695685326375,6.0,0.00895
33.0,-6.2,5.2687759489277965,-9.0,0.00005
11.0,26.98344509639564,14.846996220279975,26.0,0.04772
24.0,-1.2352941176470589,6.557702357351427,-2.5,0.00034
15.0,14.076366225597816,11.695489412437299,13.0,0.16853
21.0,5.008,9.353070939536384,3.0,0.00125
22.0,2.375,8.102533040146561,1.0,0.00072
43.0,-4.0,0.0,-4.0,0.00001
12.0,23.52685891998869,14.315665565299225,23.0,0.14148
25.0,-2.0,3.58024884863913,-1.5,0.00022
26.0,-5.111111111111111,5.445578113263487,-6.0,0.00018
23.0,-1.4090909090909092,5.917301987385581,-2.0,0.00044
17.0,9.973458086690854,10.3069680299408,9.0,0.05237
29.0,-5.0,4.447221354708778,-6.0,0.00009
36.0,-3.0,0.0,-3.0,0.00001
37.0,0.5,1.5,0.5,0.00002
20.0,5.1050955414012735,8.612228723715948,4.0,0.00314
28.0,-0.16666666666666666,3.131382371342656,0.5,0.00006
35.0,-4.0,0.0,-4.0,0.00001
42.0,-4.0,0.0,-4.0,0.00001
