x,mean,stdev,median,proportion
20.0,6.463636363636364,9.039989212309806,6.0,0.0011
11.0,11.358723046765611,12.795545331685835,9.0,0.03571
18.0,7.121259029927761,9.888503924757874,6.0,0.01938
21.0,4.2592592592592595,7.456503959843045,3.0,0.00027
12.0,10.739682539682539,12.073224915091254,9.0,0.12285
19.0,5.055205047318612,9.47061434115892,4.0,0.00634
22.0,2.0,10.0,2.0,0.00002
14.0,9.704175750461177,11.326035582219314,8.0,0.23852
17.0,7.338194572641684,10.222866602722464,6.0,0.05417
15.0,8.884661302880872,10.873874565306895,8.0,0.19265
16.0,8.143118307652129,10.453396656314045,7.0,0.11487
13.0,10.399915934989725,11.791474928703309,9.0,0.21412
