x,mean,stdev,median,proportion
40.0,14.135836177474403,1.7983626608255734,14.0,0.9766666666666667
39.0,14.280784844384304,1.8349475938692694,14.0,0.9853333333333333
38.0,14.301771117166213,1.7918441087355985,14.0,0.9786666666666667
37.0,14.335805799055967,2.009882648733282,14.0,0.9886666666666667
36.0,14.286974219810041,1.9584576188740015,14.0,0.9826666666666667
35.0,14.27710027100271,1.848911272177429,14.0,0.984
34.0,14.40149456521739,1.967072130419939,14.0,0.9813333333333333
33.0,14.450914014895057,2.1323334197983295,14.0,0.9846666666666667
32.0,14.505502063273727,2.1931266870387387,14.0,0.9693333333333334
31.0,14.40082361015786,1.8749365602020522,14.0,0.9713333333333334
30.0,14.62412831241283,2.07165993053296,14.0,0.956
29.0,14.647586206896552,1.9671292844850596,14.0,0.9666666666666667
28.0,14.67171369580179,2.23012093606339,14.0,0.9686666666666667
27.0,14.916724019270475,2.1298074006561487,15.0,0.9686666666666667
26.0,14.94831150930393,2.2224844634664795,15.0,0.9673333333333334
25.0,14.982876712328768,2.2081064716810226,15.0,0.9733333333333334
24.0,15.103120759837179,2.382991182794418,15.0,0.9826666666666667
23.0,15.08645336963921,2.423509264666915,15.0,0.9793333333333333
22.0,15.32627986348123,2.518469417794442,15.0,0.9766666666666667
21.0,15.433923705722071,2.555193274476215,15.0,0.9786666666666667
20.0,15.581694915254237,2.6349548303093795,15.0,0.9833333333333333
19.0,15.77649456521739,2.7161286978402424,15.0,0.9813333333333333
18.0,15.945652173913043,2.8830996696444418,15.0,0.9813333333333333
17.0,16.002724795640326,2.893192835359094,16.0,0.9786666666666667
16.0,16.132191780821916,3.098772070801885,15.0,0.9733333333333334
15.0,16.43160054719562,3.2367439913182428,16.0,0.9746666666666667
14.0,16.549382716049383,3.249031135994898,16.0,0.972
13.0,16.750170183798502,3.385520811090086,16.0,0.9793333333333333
12.0,17.13736263736264,3.5771066444009163,17.0,0.9706666666666667
11.0,17.45762711864407,3.7741405302817466,17.0,0.9833333333333333
10.0,17.62517099863201,3.9233938053179904,17.0,0.9746666666666667
9.0,17.95575221238938,4.004772841215616,17.0,0.9793333333333333
8.0,18.344707520891365,4.2382370212342755,18.0,0.9573333333333334
7.0,18.74739764052741,4.461264601740158,18.0,0.9606666666666667
6.0,18.815450643776824,4.332594819821374,18.0,0.932
5.0,19.02911093627065,4.4689613089890985,18.0,0.8473333333333334
4.0,19.519469026548673,4.8930211889215505,19.0,0.7533333333333333
3.0,19.632426988922457,4.96420580007875,19.0,0.662
2.0,19.468911917098445,4.909314120864463,18.0,0.5146666666666667
1.0,19.921348314606742,4.9903833792540775,19.0,0.41533333333333333
0.0,19.908496732026144,5.111641815885664,19.0,0.408
-1.0,19.462555066079297,4.968815403220864,19.0,0.30266666666666664
-2.0,19.702819956616054,5.101207022760346,18.0,0.30733333333333335
-3.0,19.121311475409836,4.756535271416474,19.0,0.20333333333333334
-4.0,19.355555555555554,5.173782435642037,18.0,0.24
-5.0,18.801762114537446,4.971318306598867,18.0,0.15133333333333332
-6.0,19.560669456066947,5.067275555976485,19.0,0.15933333333333333
-7.0,18.658385093167702,4.744536694765522,17.0,0.10733333333333334
-8.0,18.666666666666668,4.367002069006504,18.0,0.11
-9.0,19.009090909090908,4.960746744640649,18.0,0.07333333333333333
-10.0,18.434343434343436,5.150584189993836,17.0,0.066
-11.0,18.514705882352942,4.855235642972329,17.0,0.04533333333333334
-12.0,17.91780821917808,4.225666599460428,17.0,0.048666666666666664
-13.0,17.463414634146343,3.408007507260208,16.0,0.027333333333333334
-14.0,17.630434782608695,4.310546700181121,16.0,0.030666666666666665
-15.0,18.0,4.579268169663901,16.0,0.022
-16.0,17.68,3.343291791034698,17.0,0.016666666666666666
-17.0,17.96,4.95160580014201,17.0,0.016666666666666666
-18.0,16.083333333333332,3.32812092461931,15.5,0.008
-19.0,15.5,1.5,16.0,0.005333333333333333
