x,mean,stdev,median,proportion
40.0,15.143145161290322,2.233739042045984,15.0,0.992
39.0,15.118403247631935,2.294353755502547,15.0,0.9853333333333333
38.0,15.276581426648722,2.2762340852379546,15.0,0.9906666666666667
37.0,15.393265993265993,2.4456837069759194,15.0,0.99
36.0,15.404183535762483,2.441887897944055,15.0,0.988
35.0,15.635071090047393,2.703880623265707,15.0,0.9846666666666667
34.0,15.87719298245614,2.883670007897021,15.0,0.988
33.0,15.87136086662153,2.852923593361477,15.0,0.9846666666666667
32.0,15.86703988803359,2.7512625231822163,15.0,0.9526666666666667
31.0,16.079242636746145,2.9047581005574874,15.0,0.9506666666666667
30.0,16.30230930720784,3.185582722880562,16.0,0.9526666666666667
29.0,16.35116115411682,3.134086573743794,16.0,0.9473333333333334
28.0,16.664068036853294,3.457832269482666,16.0,0.9406666666666667
27.0,16.682517482517483,3.4806018827894536,16.0,0.9533333333333334
26.0,17.05857740585774,3.682583637069009,16.0,0.956
25.0,17.273231622746184,3.6807731071317837,16.0,0.9613333333333334
24.0,17.31740614334471,3.8335154063709984,16.0,0.9766666666666667
23.0,17.666666666666668,3.9738621516449175,17.0,0.966
22.0,17.930986887508627,4.275784341880254,17.0,0.966
21.0,18.120415224913494,4.34474966535219,17.0,0.9633333333333334
20.0,18.512928022361983,4.689038232610256,17.0,0.954
19.0,18.83817427385892,4.859159748132605,18.0,0.964
18.0,19.32703081232493,4.8450989278753855,18.0,0.952
17.0,19.37084217975938,5.012770577138728,18.0,0.942
16.0,19.53840579710145,5.03286046051734,18.0,0.92
15.0,20.13762811127379,5.4625120599576995,19.0,0.9106666666666666
14.0,20.349310094408132,5.516396754027966,19.0,0.918
13.0,20.643542435424354,5.413856146376669,19.0,0.9033333333333333
12.0,20.91506646971935,5.697004359623823,20.0,0.9026666666666666
11.0,21.25369822485207,5.848176617979775,20.0,0.9013333333333333
10.0,21.806083650190114,6.048822361632392,20.0,0.8766666666666667
9.0,22.15076923076923,6.179522587407871,21.0,0.8666666666666667
8.0,22.511336982017202,6.1881867844506715,21.0,0.8526666666666667
7.0,23.045307443365697,6.593334305792351,22.0,0.824
6.0,23.709949409780776,6.833494448070325,22.0,0.7906666666666666
5.0,24.485480943738658,7.247708674473345,23.0,0.7346666666666667
4.0,24.28556263269639,7.070030619714439,23.0,0.628
3.0,24.693315858453474,7.062372921727837,23.0,0.5086666666666667
2.0,24.870912220309812,7.197403243779554,24.0,0.3873333333333333
1.0,24.61611374407583,7.2930874280723925,23.0,0.2813333333333333
0.0,24.85301204819277,7.667178324369799,23.0,0.27666666666666667
-1.0,23.468354430379748,6.6776321184849765,22.0,0.10533333333333333
-2.0,25.189655172413794,7.515019971260906,23.5,0.116
-3.0,24.341176470588234,8.081282573186119,23.0,0.056666666666666664
-4.0,22.934065934065934,5.716377470065118,22.0,0.06066666666666667
-5.0,23.3125,6.406885131117408,23.0,0.032
-6.0,22.72340425531915,7.767094058473439,20.0,0.03133333333333333
-7.0,23.083333333333332,7.942064523087741,21.0,0.008
-8.0,24.142857142857142,9.934479228979262,22.5,0.009333333333333334
-9.0,18.833333333333332,2.608745973749755,18.5,0.004
-10.0,21.2,5.706137047074843,20.0,0.0033333333333333335
-11.0,16.0,2.449489742783178,16.0,0.002
-12.0,19.0,2.0,19.0,0.0013333333333333333
-13.0,0.0,0.0,0.0,0.0
