x,mean,stdev,median,proportion
40.0,22.28744123572868,6.318976672381681,21.0,0.9926666666666667
39.0,22.443997317236754,6.170399133779523,22.0,0.994
38.0,22.27077747989276,6.140043811034504,21.0,0.9946666666666667
37.0,22.358008075370122,6.347578236167598,21.0,0.9906666666666667
36.0,22.29023569023569,6.370275481386956,21.0,0.99
35.0,22.435690235690235,6.03419595471269,21.0,0.99
34.0,22.149022252191504,6.0104464062893275,21.0,0.9886666666666667
33.0,22.309507754551586,6.323005760558172,21.0,0.9886666666666667
32.0,22.63376446562287,6.339228428960735,22.0,0.9793333333333333
31.0,22.470307167235497,6.22715392299995,21.0,0.9766666666666667
30.0,22.48155737704918,6.4792387042459465,21.0,0.976
29.0,22.517881705639613,6.311657904154334,21.0,0.9693333333333334
28.0,22.773074253990284,6.713880681884826,21.0,0.9606666666666667
27.0,23.13972602739726,6.282804097073157,22.0,0.9733333333333334
26.0,22.755540166204987,6.387460972265054,22.0,0.9626666666666667
25.0,22.965853658536584,6.363951549433099,22.0,0.9566666666666667
24.0,23.31582584657913,6.615758217995333,22.0,0.9646666666666667
23.0,23.301388888888887,6.34030303025274,22.0,0.96
22.0,23.61825726141079,6.718982729034937,23.0,0.964
21.0,23.71261199172984,6.6209345327692715,23.0,0.9673333333333334
20.0,23.937888198757765,6.883252494168282,23.0,0.966
19.0,24.056668970283344,6.945505780648624,23.0,0.9646666666666667
18.0,24.477446217904234,7.049912122243402,23.0,0.9606666666666667
17.0,24.635915492957746,7.006373773761095,24.0,0.9466666666666667
16.0,25.34334763948498,7.637026416367633,24.0,0.932
15.0,25.7558886509636,7.619638865748055,25.0,0.934
14.0,26.058273381294963,7.56355707190334,25.0,0.9266666666666666
13.0,26.282655246252677,7.448709631650843,25.0,0.934
12.0,27.019424460431654,7.961981403532224,26.0,0.9266666666666666
11.0,27.753218884120173,8.094747432175772,27.0,0.932
10.0,28.571734475374733,8.42115214723945,28.0,0.934
9.0,29.078796561604584,8.33569207976062,28.0,0.9306666666666666
8.0,29.860888565185725,8.621963760034728,29.0,0.9153333333333333
7.0,30.556153846153848,8.668284399918477,29.0,0.8666666666666667
6.0,31.46540362438221,9.115226455657076,30.0,0.8093333333333333
5.0,31.76981852913085,8.9352721882893,31.0,0.698
4.0,33.03193832599119,9.448916318335677,32.0,0.6053333333333333
3.0,32.875901875901874,9.268274142034276,32.0,0.462
2.0,32.80952380952381,8.691344912993571,32.0,0.308
1.0,34.42201834862385,9.457414848702493,33.0,0.218
0.0,33.37845303867403,8.751188069887139,32.5,0.24133333333333334
-1.0,33.57615894039735,9.671722342004589,33.0,0.10066666666666667
-2.0,32.15028901734104,8.631871472559181,31.0,0.11533333333333333
-3.0,32.36082474226804,8.991617593551567,31.0,0.06466666666666666
-4.0,33.21978021978022,9.723430631644366,32.0,0.06066666666666667
-5.0,32.4054054054054,8.830106544793399,31.0,0.024666666666666667
-6.0,32.604166666666664,8.46251436072965,31.5,0.032
-7.0,32.583333333333336,9.521539908135773,33.0,0.016
-8.0,33.96153846153846,10.642732331468736,31.5,0.017333333333333333
-9.0,39.25,6.179603547154137,37.5,0.0026666666666666666
-10.0,29.333333333333332,8.445906306213285,25.0,0.006
-11.0,26.666666666666668,3.7712361663282534,24.0,0.002
-12.0,22.0,0.0,22.0,0.0006666666666666666
-13.0,38.0,0.0,38.0,0.0006666666666666666
-14.0,29.0,0.0,29.0,0.0006666666666666666
-15.0,0.0,0.0,0.0,0.0
