x,mean,stdev,median,proportion
40.0,14.763879598662207,2.0149357854823036,14.0,0.9966666666666667
39.0,14.821138211382113,2.1803477519998875,15.0,0.984
38.0,14.993224932249323,2.287874874775814,15.0,0.984
37.0,14.975741239892184,2.1902637234648545,15.0,0.9893333333333333
36.0,15.151719487525286,2.441888759055728,15.0,0.9886666666666667
35.0,15.272788656313303,2.4433892101840673,15.0,0.9873333333333333
34.0,15.47361299052774,2.756278465390587,15.0,0.9853333333333333
33.0,15.481381178063643,2.507232325747246,15.0,0.9846666666666667
32.0,15.617036011080332,2.727618683053719,15.0,0.9626666666666667
31.0,15.866760168302946,2.953672735954392,15.0,0.9506666666666667
30.0,15.829113924050633,2.878392596677486,15.0,0.948
29.0,16.110098176718093,3.0100013962635597,15.0,0.9506666666666667
28.0,16.29710656316161,3.309906660444245,16.0,0.9446666666666667
27.0,16.361805555555556,3.2141721011054543,16.0,0.96
26.0,16.58091286307054,3.3749169545667037,16.0,0.964
25.0,16.861495844875346,3.672000365211808,16.0,0.9626666666666667
24.0,17.182191780821917,4.003896816433304,16.0,0.9733333333333334
23.0,17.32213845099383,4.059917491744854,16.0,0.9726666666666667
22.0,17.53840877914952,4.172575983125665,16.0,0.972
21.0,17.686771761480465,4.200252505138224,17.0,0.9726666666666667
20.0,18.061677061677063,4.476899260257462,17.0,0.962
19.0,18.504160887656035,5.109920393882145,17.0,0.9613333333333334
18.0,18.751738525730183,4.757716128915432,17.0,0.9586666666666667
17.0,19.120055517002083,5.2460771766080185,18.0,0.9606666666666667
16.0,19.20229555236729,5.148647818351159,18.0,0.9293333333333333
15.0,19.49136690647482,5.3551156476020765,18.0,0.9266666666666666
14.0,19.946428571428573,5.4000649561475,19.0,0.9333333333333333
13.0,20.492795389048993,5.640715507497307,19.0,0.9253333333333333
12.0,20.643916913946587,5.645110283929426,19.0,0.8986666666666666
11.0,20.76775147928994,5.866681695452061,19.0,0.9013333333333333
10.0,21.116210214655812,6.00066336058445,20.0,0.9006666666666666
9.0,21.960388639760836,6.287155661056778,21.0,0.892
8.0,21.987208427389014,5.990636193590974,21.0,0.886
7.0,22.950949367088608,6.997906494176197,22.0,0.8426666666666667
6.0,23.047420965058237,6.470867584181144,22.0,0.8013333333333333
5.0,24.195867026055705,7.482192155406208,23.0,0.742
4.0,24.38501026694045,7.321498059103992,23.0,0.6493333333333333
3.0,24.262275449101796,7.033671086571211,23.0,0.5566666666666666
2.0,25.382736156351793,8.196791400061333,24.0,0.4093333333333333
1.0,24.399568034557234,7.218149657539157,23.0,0.30866666666666664
0.0,24.356540084388186,7.549100139983492,23.0,0.316
-1.0,22.47142857142857,6.6254662266959325,21.0,0.14
-2.0,23.537037037037038,7.369765469314637,22.0,0.144
-3.0,22.80808080808081,5.91808863438012,22.0,0.066
-4.0,23.680672268907564,7.569213154836414,22.0,0.07933333333333334
-5.0,21.324324324324323,5.918610383171603,19.0,0.024666666666666667
-6.0,21.837209302325583,5.921699286907824,21.0,0.028666666666666667
-7.0,21.6875,5.276347576685978,21.0,0.021333333333333333
-8.0,23.344827586206897,7.11131134940698,22.0,0.019333333333333334
-9.0,19.0,4.301162633521313,19.5,0.0026666666666666666
-10.0,19.166666666666668,5.669117117231649,16.5,0.004
-11.0,14.5,0.5,14.5,0.0013333333333333333
-12.0,16.166666666666668,3.6247605284885913,15.0,0.004
-13.0,0.0,0.0,0.0,0.0
