x,mean,stdev,median,proportion
40.0,14.136,3.5558642643760505,13.0,1.0
39.0,14.33,3.7201836872211778,13.0,1.0
38.0,14.63,4.056242103228069,13.0,1.0
37.0,14.792666666666667,3.996041318883243,13.0,1.0
36.0,14.989333333333333,4.19331446736614,14.0,1.0
35.0,15.484666666666667,4.460242693944905,14.0,1.0
34.0,15.628,4.402152806676921,14.0,1.0
33.0,15.886666666666667,4.757781929522302,14.0,1.0
32.0,15.90548780487805,4.970360357068638,14.0,0.8746666666666667
31.0,16.280254777070063,5.333417535712715,15.0,0.8373333333333334
30.0,16.452936444086887,5.2939344138761735,15.0,0.8286666666666667
29.0,16.64268960125098,5.357851694778986,15.0,0.8526666666666667
28.0,17.59433962264151,5.790001632428471,16.0,0.848
27.0,17.77217125382263,5.882521344216911,16.0,0.872
26.0,18.453010279001468,6.586011332368441,17.0,0.908
25.0,19.176386913229017,6.9323214808212725,18.0,0.9373333333333334
24.0,20.276666666666667,7.375282292149173,19.0,1.0
23.0,20.64709806537692,7.367342017534219,19.0,0.9993333333333333
22.0,21.671333333333333,8.098681675982144,20.0,1.0
21.0,22.129419613075385,8.306217986235703,21.0,0.9993333333333333
20.0,22.605333333333334,8.304149859491288,22.0,1.0
19.0,23.34489659773182,8.768335918662293,22.0,0.9993333333333333
18.0,24.294589178356713,9.342910184894713,23.0,0.998
17.0,25.194500335345406,9.774231952609572,24.0,0.994
16.0,26.78714859437751,10.387998727969572,25.5,0.996
15.0,27.51109616677875,10.223118404285206,26.0,0.9913333333333333
14.0,28.3322102425876,10.446217681437693,27.0,0.9893333333333333
13.0,28.92539356605065,10.694336584153023,27.0,0.974
12.0,29.649898028552006,11.481806537423333,28.0,0.9806666666666667
11.0,30.951535836177474,11.127420825520977,30.0,0.9766666666666667
10.0,31.14137214137214,11.154343385291936,30.0,0.962
9.0,32.58,11.405117423695204,31.0,0.9666666666666667
8.0,33.71829011913104,11.631480873972029,32.0,0.9513333333333334
7.0,33.815677966101696,11.717028868310166,33.0,0.944
6.0,34.25653206650831,11.56012488769916,33.0,0.842
5.0,35.090056285178235,11.834432963245842,34.0,0.7106666666666667
4.0,35.3192261185006,11.27161228110769,35.0,0.5513333333333333
3.0,35.425185185185185,11.87733427205578,35.0,0.45
2.0,36.111111111111114,11.15290385762559,36.0,0.342
1.0,36.278645833333336,11.40440166483536,36.0,0.256
0.0,35.656160458452725,12.102326288375263,35.0,0.23266666666666666
-1.0,36.2639405204461,11.354094658456518,35.0,0.17933333333333334
-2.0,35.75819672131148,11.809056958808473,35.0,0.16266666666666665
-3.0,36.678048780487806,11.650343074507209,35.0,0.13666666666666666
-4.0,36.33507853403141,12.060179592365744,36.0,0.12733333333333333
-5.0,37.2,11.105254011803,37.5,0.08
-6.0,37.91056910569106,11.936150003744551,38.0,0.082
-7.0,37.68055555555556,10.614228381554755,37.0,0.048
-8.0,37.225352112676056,11.270298973874818,36.0,0.04733333333333333
-9.0,35.425,11.916139265718572,32.5,0.02666666666666667
-10.0,37.07142857142857,13.517876800639918,40.0,0.028
-11.0,38.04347826086956,10.699363089006605,38.0,0.015333333333333332
-12.0,35.32142857142857,13.142226304736116,37.5,0.018666666666666668
-13.0,35.25,15.308630463456444,35.5,0.008
-14.0,35.583333333333336,15.002546080212149,33.5,0.008
-15.0,32.8,12.18031198286809,35.0,0.006666666666666667
-16.0,45.0,17.1697408250678,52.0,0.0033333333333333335
-17.0,51.0,11.554220008291344,57.5,0.0026666666666666666
-18.0,39.0,0.0,39.0,0.0006666666666666666
-19.0,40.75,10.615436872781073,36.5,0.0026666666666666666
