x,mean,stdev,median,proportion
14.0,29.958266201143577,14.511985397844937,29.0,0.6158
6.0,52.128825726675295,12.415853625986324,51.263555555555556,1.0
5.0,53.901983168853576,11.487936528317794,52.330222222222226,1.0
19.0,20.489743589743586,12.525613993619627,19.0,0.00104
4.0,55.41526929550605,10.44447875150214,54.330222222222226,1.0
21.0,18.0,0.0,18.0,0.00001
15.0,25.804545849863537,13.805637609716209,24.066666666666666,0.33268
0.0,59.81258573334345,4.3079951994240195,59.47533333333333,1.0
12.0,37.653409788576575,15.238877497385785,36.14,0.9737
13.0,34.0111676402941,14.99180591407015,33.06666666666666,0.85364
20.0,25.26060606060606,14.889097212198822,22.0,0.00011
18.0,21.47893333333337,12.104332767695665,19.0,0.00625
11.0,40.639132320018035,15.082731499406227,39.13177777777778,1.0
7.0,50.058394020003526,13.069264186744926,49.211777777777776,1.0
2.0,58.05764884438543,7.975010492180244,57.662,1.0
3.0,56.81847199108393,9.384818168500491,56.39533333333333,1.0
1.0,59.04517800002765,6.27836110942313,59.461999999999996,1.0
8.0,47.88564802219738,13.680432159616771,47.17177777777778,1.0
9.0,45.612409528855764,14.234286443764265,44.26433333333333,1.0
16.0,22.399898458559854,13.27300297687092,21.0,0.12737
17.0,20.222498782744122,12.578501330699826,18.0,0.03423
10.0,43.21392846888026,14.705742740493639,42.13177777777778,1.0
