x,mean,stdev,median,proportion
20.0,20.857142857142858,13.46878477314513,18.0,0.00014
15.0,26.5201539025284,14.45090805769549,25.0,0.21832
14.0,31.568818941895596,15.337517153533636,31.0,0.28466
18.0,20.49805447470817,12.68493530781965,18.0,0.00514
13.0,36.80648970131631,16.257589320639877,36.0,0.22867
12.0,41.90201440160423,17.097152158467463,41.0,0.10971
17.0,19.612676056338028,12.99111212510975,17.0,0.0284
16.0,22.475447544754477,13.571550793343993,21.0,0.09999
19.0,20.70967741935484,10.223923709856894,19.0,0.00062
11.0,46.14127310061602,16.9076656861367,46.0,0.02435
