x,mean,stdev,median,proportion
0.0,58.58748640002783,4.564243389638319,57.502,1.0
9.0,34.698295062212246,13.640220353324269,34.13333333333333,1.0
6.0,43.66291621556137,11.792980417446161,43.239999999999995,1.0
4.0,49.240307899972564,10.164315051597848,48.41177777777778,1.0
2.0,54.12837811332509,7.962515008528584,53.470222222222226,1.0
14.0,34.7712166918048,14.100426193847277,34.06666666666666,0.02652
15.0,36.106768447837126,13.180532846984521,36.0,0.00655
17.0,39.847368421052614,12.091269944231085,39.0,0.00038
5.0,46.47932791556437,11.024618561900866,45.42666666666667,1.0
3.0,51.752334971091805,9.144834628118764,51.34844444444444,1.0
13.0,32.22019709239952,14.726592765413951,32.0,0.10249
18.0,46.17777777777778,10.063403935320895,48.0,0.00009
20.0,55.0,0.0,55.0,0.00001
12.0,29.51380653692727,15.05821492280581,29.0,0.37306
7.0,40.73049878443676,12.471310452205767,40.273333333333326,1.0
19.0,46.955555555555556,11.39217838672928,53.0,0.00003
16.0,36.783739837398365,12.62214924631586,37.06666666666666,0.00164
8.0,37.76019193112553,13.098734584072437,37.20666666666666,1.0
10.0,31.6058684555992,14.15911501409574,31.066666666666666,1.0
1.0,56.419843182233095,6.421890151105617,56.45022222222222,1.0
11.0,29.676958200015886,14.599644375345793,29.0,1.0
