x,mean,stdev,median,proportion
4.0,53.88256695771601,10.484392803031534,53.33022222222222,1.0
12.0,28.82510315813466,14.338022324733982,27.133333333333333,0.92935
2.0,57.6866194132774,8.235888425140308,57.39533333333333,1.0
16.0,20.36358842810308,13.04849279592905,19.0,0.04678
9.0,39.54617334442836,13.582917796718768,38.19844444444445,1.0
6.0,49.115878524452924,12.164186477168581,48.263555555555556,1.0
10.0,36.002692773337635,13.93141129454469,35.06666666666666,1.0
5.0,51.73998183998392,11.494069256009915,50.37177777777778,1.0
14.0,22.786765287815427,13.898999916691617,21.066666666666666,0.39703
17.0,20.380879050368943,12.543240156157298,18.0,0.01039
18.0,21.136524822695034,11.95505627042603,20.0,0.00188
11.0,32.42703722224023,14.21213941780759,31.08,1.0
13.0,25.53359138491488,14.21891562294434,24.066666666666666,0.70414
19.0,20.28828828828829,12.926886607777735,17.0,0.00037
7.0,46.12623138887858,12.699751612817282,45.211777777777776,1.0
20.0,20.25,7.75806032459145,20.5,0.00004
1.0,58.65610505113136,6.360393697919832,58.461999999999996,1.0
0.0,59.448515800013226,4.3599718799191765,58.48866666666667,1.0
3.0,55.78694381774863,9.382097504833855,55.39533333333333,1.0
15.0,21.151598179263242,13.47418081819949,20.0,0.15891
8.0,42.89601986663812,13.179991963602886,42.13177777777778,1.0
