x,mean,stdev,median,proportion
11.0,28.576639792184753,14.348351505319776,28.0,0.63133
16.0,37.03191489361702,14.092741550822852,34.5,0.00094
18.0,32.22222222222222,11.94224786003947,32.0,0.00009
12.0,27.74105987204615,14.926137314621743,27.0,0.27041
14.0,32.60675965665236,13.982606355300838,32.0,0.01864
13.0,30.53987564206542,14.601574094234216,30.0,0.07398
15.0,35.4237668161435,14.67089703773473,35.0,0.00446
17.0,35.46666666666667,10.391449476479314,39.0,0.00015
