x,mean,stdev,median,proportion
12.0,23.35160083160083,14.08193654295384,22.0,0.36075
16.0,16.019867549668874,12.862476973341556,15.0,0.00604
17.0,16.670212765957448,11.90600447286671,16.0,0.00094
13.0,20.53784975779047,13.797210603455618,19.0,0.27662
18.0,16.0,14.690132742763083,13.5,0.0001
19.0,16.333333333333332,14.839886193034712,22.0,0.00003
11.0,26.20579580028929,13.59534855183566,25.0,0.20049
15.0,16.240785498489426,12.93858481544626,14.0,0.0331
14.0,17.972607233658657,13.28652273096035,16.0,0.12193
