x,mean,stdev,median,proportion
45.0,17.9375,9.160390844099759,17.5,0.00096
41.0,18.091304347826085,9.507224394637012,18.0,0.0023
37.0,17.05141843971631,9.087001556003436,16.0,0.00564
24.0,17.909970238095237,9.12720563684248,17.0,0.05376
34.0,17.291782086795937,9.231694815160973,17.0,0.01083
51.0,20.09375,9.257967430138216,19.0,0.00032
39.0,17.735849056603772,9.12833230629764,18.0,0.00424
11.0,18.23694779116466,8.559975059154,18.0,0.00249
19.0,18.487041632202924,9.159977873297079,18.0,0.07254
48.0,17.92,8.411515915695576,17.5,0.0005
50.0,21.317073170731707,9.781612975848114,19.0,0.00041
28.0,17.858539765319428,9.354955429506498,17.0,0.03068
59.0,19.333333333333332,4.9216076867444665,20.0,0.00003
32.0,17.33594259621657,9.184134678164241,17.0,0.01533
22.0,18.40543396226415,9.247074024750946,18.0,0.06625
58.0,10.0,0.0,10.0,0.00001
12.0,18.604938271604937,8.690006016666649,18.0,0.00891
57.0,9.666666666666666,2.494438257849294,9.0,0.00003
21.0,18.30609896432681,9.139632689693745,18.0,0.06952
43.0,18.26219512195122,9.160401794413724,17.0,0.00164
23.0,17.942484534358805,8.972884664408173,17.0,0.05981
42.0,18.82,9.906442348290328,18.0,0.002
14.0,19.01864873127484,8.736186850862186,19.0,0.03271
53.0,15.904761904761905,9.640711107464861,13.0,0.00021
25.0,17.932922946295903,9.330448595519881,17.0,0.04711
38.0,17.91044776119403,8.974049154182563,17.0,0.00469
55.0,17.583333333333332,5.423073134507981,16.5,0.00012
20.0,18.18479612992398,9.145252865597188,17.0,0.07235
54.0,15.947368421052632,7.535695296461238,15.0,0.00019
26.0,17.93094321462945,9.044074263493728,17.0,0.04156
47.0,16.879310344827587,8.616498981418703,15.0,0.00058
35.0,17.574418604651164,9.35005516768344,16.5,0.0086
49.0,18.894736842105264,9.954606111016385,17.0,0.00038
46.0,19.654761904761905,9.878420501779487,19.5,0.00084
13.0,18.77277486910995,8.452063296940832,19.0,0.0191
31.0,18.056148231330713,9.023594537720074,17.0,0.01781
30.0,17.89767441860465,9.075381685152745,17.0,0.0215
29.0,18.154679040989947,9.26703044147636,18.0,0.02586
56.0,15.625,5.655473012931809,15.0,0.00008
40.0,18.016666666666666,8.393036134531743,18.0,0.003
15.0,18.870074307588382,8.851981954624023,18.0,0.04441
17.0,18.69704808277541,9.1484495985236,18.0,0.06572
16.0,18.808771929824562,9.044524964041925,18.0,0.057
33.0,17.44115292233787,8.968226305032676,17.0,0.01249
18.0,18.823529411764707,9.11107092914469,18.0,0.07157
44.0,17.181818181818183,9.256739267638473,16.0,0.00143
27.0,17.871897289586304,9.063250274052196,17.0,0.03505
36.0,18.044604316546764,9.359150277038122,18.0,0.00695
52.0,18.4,10.467728183963002,17.0,0.0003
