x,mean,stdev,median,proportion
0.0,59.45041706667972,4.356099265587001,58.48866666666667,1.0
8.0,45.31295424664019,13.422821607323186,44.19844444444445,1.0
11.0,35.2113176400172,14.456458900702478,34.10666666666667,1.0
16.0,21.004442044636306,13.558613043362838,20.0,0.05556
17.0,20.15661375661374,13.155891022804289,18.0,0.0126
2.0,57.74038644438527,8.00391469091735,57.39533333333333,1.0
1.0,58.67325000002559,6.343659656499232,58.461999999999996,1.0
6.0,50.67395989334247,12.344080575694749,49.330222222222226,1.0
3.0,56.150874088861066,9.343485987066119,55.39688888888889,1.0
18.0,20.695927601809952,12.404804876292543,18.0,0.00221
14.0,24.68172616841412,14.337956563158297,23.066666666666666,0.43713
15.0,22.254309350168295,13.864201403393883,21.0,0.18374
19.0,21.37962962962963,11.517349440493275,21.53333333333333,0.00036
7.0,48.137854006663844,12.897444178544069,47.251777777777775,1.0
4.0,54.521625757719306,10.433037828232111,53.39533333333333,1.0
13.0,27.88185979173068,14.556276687697226,27.0,0.73646
9.0,42.23027963330853,13.830827132532201,41.19844444444445,1.0
12.0,31.5146997635113,14.646776541392818,30.119999999999997,0.93913
10.0,38.82289467111051,14.15979963388484,38.04,1.0
5.0,52.83989382886305,11.535159443473802,51.93022222222222,1.0
20.0,19.25,2.277608394786075,18.5,0.00004
