x,mean,stdev,median,proportion
40.0,12.200666666666667,1.9937568112039712,11.0,1.0
39.0,12.253333333333334,2.0155616807453107,11.0,1.0
38.0,12.375333333333334,2.1281740739161736,11.0,1.0
37.0,12.525333333333334,2.3249426277270078,12.0,1.0
36.0,12.497333333333334,2.3920687466895467,12.0,1.0
35.0,12.815333333333333,2.584549907086768,12.0,1.0
34.0,12.942666666666666,2.73460165695522,12.0,1.0
33.0,13.104666666666667,2.981561932201884,12.0,1.0
32.0,13.182150694952451,3.0546886116645564,12.0,0.9113333333333333
31.0,13.233900814211696,3.087915768247363,12.0,0.9006666666666666
30.0,13.517420311341734,3.333995061623405,12.0,0.8993333333333333
29.0,13.83578792341679,3.664338824174422,12.0,0.9053333333333333
28.0,13.931718061674008,3.63764880452509,12.0,0.908
27.0,14.259882869692532,4.16890300387046,13.0,0.9106666666666666
26.0,14.858356940509916,4.550602440279479,13.0,0.9413333333333334
25.0,15.094809688581314,4.555844269211145,13.0,0.9633333333333334
24.0,15.886666666666667,5.032211795578109,15.0,1.0
23.0,16.124666666666666,5.309343169252604,15.0,1.0
22.0,16.715333333333334,5.503541122667173,15.0,1.0
21.0,16.87,5.936870668402102,15.0,1.0
20.0,17.907333333333334,6.3906243478674085,16.0,1.0
19.0,18.002,6.218627608510834,17.0,1.0
18.0,18.552666666666667,6.58416480825188,17.0,1.0
17.0,19.801333333333332,7.254736261382762,19.0,1.0
16.0,20.468979319546364,7.644507659564743,19.0,0.9993333333333333
15.0,20.506,7.652753142932707,19.0,1.0
14.0,21.46430953969313,8.200003276995934,20.0,0.9993333333333333
13.0,22.577051367578385,8.574978360358513,21.0,0.9993333333333333
12.0,23.256,8.621975643667763,22.0,1.0
11.0,24.045363575717143,8.898018131528703,23.0,0.9993333333333333
10.0,24.939959973315542,9.246263742391381,24.0,0.9993333333333333
9.0,25.162759544541192,9.397077021660644,24.0,0.9953333333333333
8.0,26.15849563465413,9.619231458650159,25.0,0.9926666666666667
7.0,26.77135171486214,9.615830493937189,26.0,0.9913333333333333
6.0,27.62212943632568,9.881969278916722,27.0,0.958
5.0,27.53008130081301,9.571654757153432,27.0,0.82
4.0,28.560728744939272,10.120696530098892,27.0,0.6586666666666666
3.0,28.764207980652962,10.021200052449103,28.0,0.5513333333333333
2.0,28.763727121464225,10.122416208704458,28.0,0.40066666666666667
1.0,28.841013824884794,11.006913407080155,28.0,0.28933333333333333
0.0,28.83222958057395,10.526876089065231,28.0,0.302
-1.0,29.026881720430108,10.47754013428629,29.0,0.248
-2.0,28.95373665480427,10.619997013710444,27.0,0.18733333333333332
-3.0,29.845794392523363,10.743376837115395,28.0,0.14266666666666666
-4.0,28.736842105263158,10.353025349498084,28.0,0.152
-5.0,30.20394736842105,10.696371012606809,30.0,0.10133333333333333
-6.0,28.333333333333332,11.76710017228742,27.0,0.088
-7.0,28.344086021505376,10.571308932754736,27.0,0.062
-8.0,32.35,12.11393825310332,30.0,0.06666666666666667
-9.0,32.08108108108108,10.334613522967441,31.5,0.04933333333333333
-10.0,31.333333333333332,11.786459812879986,30.0,0.042
-11.0,27.026315789473685,11.617787727865863,28.0,0.025333333333333333
-12.0,31.45,11.532454205415256,29.0,0.02666666666666667
-13.0,28.210526315789473,11.255777217750149,30.0,0.012666666666666666
-14.0,31.571428571428573,11.870617701950069,31.0,0.014
-15.0,32.421052631578945,14.057460238807398,29.0,0.012666666666666666
-16.0,28.125,15.95648379186342,21.0,0.010666666666666666
-17.0,26.8,10.077698149875298,26.0,0.006666666666666667
-18.0,24.5,10.53169818531972,27.5,0.004
-19.0,39.0,7.874007874011811,35.0,0.002
