x,mean,stdev,median,proportion
16.0,16.60330578512397,12.779425185823076,16.0,0.00121
12.0,20.601519797360353,13.621692465420669,19.0,0.37505
11.0,23.87113414429329,13.322768849209377,23.0,0.41679
14.0,16.69293756397134,12.672348433097037,15.0,0.03908
13.0,17.692610652663166,13.01151596848514,16.0,0.15996
15.0,15.518904823989569,12.360062904109716,14.0,0.00767
17.0,16.181818181818183,13.316552801397089,15.0,0.00022
18.0,36.5,17.5,36.5,0.00002
