x,mean,stdev,median,proportion
11.0,27.695915736899344,14.682130023709002,27.0,0.49654
20.0,-6.0,0.0,-6.0,0.00001
14.0,20.130033964095098,14.3087387734748,19.0,0.02061
17.0,25.846153846153847,15.540746214368482,28.0,0.00013
13.0,19.438065099457503,13.813667572650628,18.0,0.1106
16.0,21.833333333333332,13.655483229172892,19.0,0.00036
12.0,22.022142624552263,13.967156443724488,21.0,0.36852
15.0,22.006211180124225,14.7108769048429,21.0,0.00322
18.0,24.0,0.0,24.0,0.00001
