x,mean,stdev,median,proportion
20.0,18.7375,10.890068583346936,16.0,0.0008
23.0,28.4,8.014985963805552,27.0,0.00005
24.0,22.5,8.5,22.5,0.00002
11.0,30.520010261672653,13.844227385943084,30.0,0.03898
14.0,22.32386384958907,13.473628848012623,21.0,0.26647
21.0,18.41176470588235,9.76222505693675,17.5,0.00034
16.0,19.937617135207496,12.870349939879977,19.0,0.0747
15.0,20.447532884947325,13.2187125342866,19.0,0.16801
25.0,46.0,0.0,46.0,0.00001
26.0,22.0,0.0,22.0,0.00001
17.0,19.574008637612877,12.436202319828094,18.0,0.02547
12.0,27.71272319957831,14.304751393966297,27.0,0.15177
19.0,20.27659574468085,10.929565850830567,19.0,0.00282
22.0,16.333333333333332,8.517954892787092,15.5,0.00012
18.0,20.943069306930692,11.683076805733242,19.0,0.00808
13.0,24.887897846388412,13.890899609450456,24.0,0.26235
