x,mean,stdev,median,proportion
12.0,38.868744222897135,16.409600674297955,38.0,0.15146
20.0,27.571428571428573,7.743331561638659,22.0,0.00007
19.0,22.06451612903226,14.055042681040458,22.0,0.00031
18.0,19.967391304347824,12.285361048551144,18.0,0.00276
16.0,20.085125998770742,13.701414918683497,18.0,0.06508
11.0,43.57728119180633,16.37562294446562,43.0,0.03759
13.0,33.200319407644,15.575194167006853,32.0,0.27551
14.0,28.16678612385321,14.866398736837482,27.0,0.27904
21.0,18.0,0.0,18.0,0.00001
15.0,23.362511671335202,14.050304941469163,22.0,0.17136
17.0,18.726948245092206,13.562284312279445,16.0,0.01681
