x,mean,stdev,median,proportion
40.0,13.548387096774194,2.067496169112757,13.0,0.992
39.0,13.626425217974514,2.072611931578474,13.0,0.994
38.0,13.776430976430976,2.302359364335224,13.0,0.99
37.0,13.758736559139784,2.1484531858733114,13.0,0.992
36.0,13.721774193548388,2.1441365589486145,13.0,0.992
35.0,14.008748317631225,2.4030160322097505,13.0,0.9906666666666667
34.0,14.028436018957345,2.555385896499713,13.0,0.9846666666666667
33.0,14.205110961667787,2.591492100921807,13.0,0.9913333333333333
32.0,14.248434237995825,2.713187077521723,14.0,0.958
31.0,14.359116022099448,2.7740982891798227,14.0,0.9653333333333334
30.0,14.494722026741732,2.8243450556020715,14.0,0.9473333333333334
29.0,14.647512263489839,3.0698135446136288,14.0,0.9513333333333334
28.0,14.66826923076923,3.043500329749478,14.0,0.9706666666666667
27.0,15.194174757281553,3.3566989625340287,14.0,0.9613333333333334
26.0,15.156876295784382,3.475194861202593,14.0,0.9646666666666667
25.0,15.349521203830369,3.700518936585678,14.0,0.9746666666666667
24.0,15.913571910871033,4.052902795521616,15.0,0.9873333333333333
23.0,15.930963773069037,4.0509424690997875,15.0,0.9753333333333334
22.0,16.106194690265486,4.157504359246493,15.0,0.9793333333333333
21.0,16.532147742818058,4.561930515109097,15.0,0.9746666666666667
20.0,16.815627141878,4.724587785955539,15.0,0.9726666666666667
19.0,16.998629198080877,4.796188604058427,16.0,0.9726666666666667
18.0,17.24793388429752,4.895234639672225,16.0,0.968
17.0,17.592822636300898,4.931956984116941,16.0,0.966
16.0,17.790877192982457,5.262490998684404,16.0,0.95
15.0,18.092514124293785,5.08937637351272,17.0,0.944
14.0,18.51558073654391,5.653263567948519,17.0,0.9413333333333334
13.0,18.707420494699647,5.686067038280511,17.0,0.9433333333333334
12.0,18.936924167257263,5.785155754952629,18.0,0.9406666666666667
11.0,19.46379928315412,5.82104215772456,18.0,0.93
10.0,19.930858806404657,5.91179904656476,19.0,0.916
9.0,20.308533916849015,6.275029540596274,19.0,0.914
8.0,20.645634629493763,6.2468093999003536,20.0,0.9086666666666666
7.0,21.024012393493415,6.614554265404281,20.0,0.8606666666666667
6.0,21.92595541401274,6.945770023614517,20.0,0.8373333333333334
5.0,22.409807355516637,7.26471031079982,21.0,0.7613333333333333
4.0,22.716634429400386,7.275457132527688,21.0,0.6893333333333334
3.0,22.981220657276996,7.360893011573808,22.0,0.568
2.0,22.707165109034268,7.310955701671585,21.0,0.428
1.0,22.574468085106382,6.429258401651758,22.0,0.3446666666666667
0.0,22.74590163934426,7.060118277244784,22.0,0.3253333333333333
-1.0,22.5016835016835,7.69324535562522,21.0,0.198
-2.0,22.503731343283583,6.978377123021309,22.0,0.17866666666666667
-3.0,21.764705882352942,6.972691981555226,21.0,0.12466666666666666
-4.0,22.573863636363637,7.545709110574364,20.5,0.11733333333333333
-5.0,21.36,5.8301286435206565,20.0,0.05
-6.0,19.568421052631578,7.447574853006563,18.0,0.06333333333333334
-7.0,21.301369863013697,6.532709965499642,20.0,0.048666666666666664
-8.0,21.26,7.633636092976925,19.0,0.03333333333333333
-9.0,19.892857142857142,5.740453477073825,19.5,0.018666666666666668
-10.0,19.791666666666668,6.264843484787859,18.0,0.016
-11.0,14.333333333333334,1.3743685418725535,14.0,0.004
-12.0,14.5,1.5,14.0,0.004
-13.0,17.0,0.0,17.0,0.0006666666666666666
-14.0,21.0,4.415880433163924,20.0,0.0026666666666666666
-15.0,14.5,0.5,14.5,0.0013333333333333333
-16.0,13.0,0.0,13.0,0.0006666666666666666
-17.0,15.0,0.0,15.0,0.0006666666666666666
-18.0,0.0,0.0,0.0,0.0
