x,mean,stdev,median,proportion
40.0,13.037333333333333,2.80569769496921,12.0,1.0
39.0,13.125333333333334,2.803621150504378,12.0,1.0
38.0,13.471333333333334,3.221776666513195,12.0,1.0
37.0,13.508,3.1539291896511186,12.0,1.0
36.0,13.648,3.4207352036270646,12.0,1.0
35.0,13.955333333333334,3.5073263638022487,13.0,1.0
34.0,14.24,3.8567343699041365,13.0,1.0
33.0,14.507333333333333,3.9049472325357852,13.0,1.0
32.0,14.285714285714286,3.8832158167381152,13.0,0.882
31.0,14.61085626911315,4.122078785948636,13.0,0.872
30.0,14.658932714617169,4.224609275685624,13.0,0.862
29.0,15.338461538461539,4.610946584202311,14.0,0.8666666666666667
28.0,15.5,4.770413956363587,14.0,0.876
27.0,16.156320119670905,5.005033300170738,15.0,0.8913333333333333
26.0,16.874820143884893,5.408507733460636,16.0,0.9266666666666666
25.0,17.0794425087108,5.75304455400991,16.0,0.9566666666666667
24.0,17.690666666666665,6.196798599994108,16.0,1.0
23.0,18.33,6.513148240290566,17.0,1.0
22.0,18.504666666666665,6.3113108692956095,17.0,1.0
21.0,19.348,6.975592878028356,18.0,1.0
20.0,20.107333333333333,7.514506829386015,19.0,1.0
19.0,20.99866577718479,8.188652773433818,20.0,0.9993333333333333
18.0,21.584666666666667,7.882311307957568,21.0,1.0
17.0,22.067333333333334,8.342189933637874,21.0,1.0
16.0,22.831220813875916,8.581839229072202,21.0,0.9993333333333333
15.0,24.012072434607646,8.726171259678434,23.0,0.994
14.0,24.92699263228399,9.378226560527072,24.0,0.9953333333333333
13.0,26.0,9.878309097673721,24.0,0.996
12.0,26.373493975903614,10.063971764916522,25.0,0.996
11.0,27.22013422818792,10.474378967131347,26.0,0.9933333333333333
10.0,27.892110586648684,10.278414809059633,27.0,0.9886666666666667
9.0,29.242895805142084,10.980108734680572,28.0,0.9853333333333333
8.0,30.236215112321307,10.801098995971628,29.0,0.9793333333333333
7.0,31.571819425444595,11.046536277094047,30.0,0.9746666666666667
6.0,32.11085089773614,11.146678692785077,31.0,0.854
5.0,32.7591763652641,10.991337780956899,32.0,0.7446666666666667
4.0,33.34807916181607,10.956519225544078,32.0,0.5726666666666667
3.0,32.87731811697575,11.498399650357598,31.0,0.4673333333333333
2.0,33.86166007905138,11.201206545465414,33.0,0.3373333333333333
1.0,34.27431421446384,11.368222042606195,33.0,0.2673333333333333
0.0,33.59504132231405,11.154002243370961,33.0,0.242
-1.0,33.18613138686131,10.911640355730686,32.5,0.18266666666666667
-2.0,34.492,10.687279167309141,33.0,0.16666666666666666
-3.0,34.233695652173914,11.032302148236381,34.0,0.12266666666666666
-4.0,35.0875,11.819151566419647,35.0,0.10666666666666667
-5.0,33.13392857142857,11.35663394524656,32.0,0.07466666666666667
-6.0,36.125984251968504,11.17927788153188,36.0,0.08466666666666667
-7.0,36.02325581395349,11.105180798279072,33.5,0.05733333333333333
-8.0,34.44444444444444,12.001028762486353,34.0,0.048
-9.0,35.36363636363637,11.637499944518915,33.0,0.03666666666666667
-10.0,33.975,12.79352863755735,34.0,0.02666666666666667
-11.0,34.583333333333336,14.488261532089426,35.0,0.016
-12.0,34.791666666666664,11.060361532166217,36.5,0.016
-13.0,35.61538461538461,7.711514482985932,33.0,0.008666666666666666
-14.0,33.18181818181818,10.178570910747931,30.0,0.007333333333333333
-15.0,28.0,10.099504938362077,26.0,0.0026666666666666666
-16.0,23.0,9.192388155425117,23.0,0.0026666666666666666
-17.0,26.0,0.0,26.0,0.0006666666666666666
-18.0,39.25,9.01041064547005,38.0,0.0026666666666666666
-19.0,49.0,10.0,49.0,0.0013333333333333333
