x,mean,stdev,median,proportion
15.0,21.073825503355703,13.997328265230783,19.0,0.00447
18.0,38.5,11.779218989389747,39.0,0.00004
11.0,29.192309465627737,14.805569588175771,29.0,0.43378
12.0,22.901940550200095,13.98723692579116,22.0,0.39731
17.0,27.11111111111111,14.239572749867373,28.0,0.00009
14.0,20.27956989247312,13.955792151720825,19.0,0.0279
16.0,20.5,14.585952145814822,18.0,0.00076
13.0,20.084555842241063,13.996039707483925,19.0,0.13565
