x,mean,stdev,median,proportion
1.0,55.79429852444724,6.257264119984384,55.461999999999996,1.0
15.0,17.85630476190479,13.074066099609611,16.0,0.00875
14.0,17.218379516435718,12.952456922660408,16.0,0.04908
18.0,35.06666666666666,0.0,35.06666666666666,0.00001
6.0,41.90875800445348,11.285890416864827,41.19844444444445,1.0
4.0,48.074726693314,9.790116771602596,47.330222222222226,1.0
5.0,45.06051590888574,10.58406708905458,44.330222222222226,1.0
2.0,53.35653018444138,7.682784707794744,52.47688888888889,1.0
11.0,24.47149394666571,13.45674504485593,23.266666666666666,1.0
12.0,21.327878818875845,13.596805643337255,20.0,0.58656
13.0,18.60467018427811,13.294208265730209,17.0,0.21037
19.0,12.0,0.0,12.0,0.00001
0.0,58.108582000027916,4.344458100146744,56.51533333333333,1.0
8.0,35.14578313333489,12.43785084272076,34.20666666666666,1.0
9.0,31.616486882223445,12.893663473178448,30.400000000000002,1.0
7.0,38.579620279997684,11.882852287231854,37.46666666666667,1.0
3.0,50.84243509777078,8.82494903327279,50.13844444444444,1.0
17.0,16.302222222222223,12.94947141301695,14.5,0.0003
16.0,18.66338028169014,12.616898342499368,18.0,0.00142
10.0,28.053197228892397,13.267136446591875,27.066666666666666,1.0
