x,mean,stdev,median,proportion
16.0,20.050116122723384,13.316717976991479,19.0,0.08181
20.0,25.3,14.574292435655325,25.0,0.0001
15.0,23.86418918918919,14.07278401064835,23.0,0.1924
17.0,18.234497816593887,13.377604218125416,16.0,0.0229
21.0,22.0,0.0,22.0,0.00001
18.0,18.62682926829268,12.217131602000807,16.5,0.0041
14.0,28.551304408482142,14.839614709710604,28.0,0.28672
12.0,38.469244562251504,16.314941936618876,38.0,0.12827
19.0,22.93243243243243,13.899573278576423,20.0,0.00074
11.0,43.14978268137747,16.59737079393588,43.0,0.02991
13.0,33.43874486247233,15.692912708250155,33.0,0.25304
