x,mean,stdev,median,proportion
19.0,19.78616352201258,12.205455414904034,17.0,0.00159
20.0,17.7,12.740094191174569,16.0,0.0002
11.0,44.20837487537388,16.348291950596572,44.0,0.02006
17.0,17.271277741865976,12.852112101155784,15.0,0.04641
18.0,18.657575757575756,11.81656593459729,17.0,0.0099
15.0,24.957706807643973,14.248046693860141,24.0,0.23077
14.0,29.94137278896429,14.9996678748157,29.0,0.26967
16.0,20.84168582375479,13.387335820707044,20.0,0.1305
12.0,40.62655826558266,16.614756536492866,40.0,0.09225
13.0,35.09253851575873,15.761610048932601,34.0,0.19862
21.0,34.333333333333336,4.714045207910317,31.0,0.00003
