x,mean,stdev,median,proportion
15.0,26.84937238493724,14.610708295542809,26.0,0.18164
14.0,31.552046867185826,15.389854906861343,31.0,0.27994
11.0,47.904734576757534,16.98734757352612,48.0,0.03485
20.0,20.4,8.089499366462674,21.0,0.0001
13.0,36.97831436481083,16.04667926583862,36.0,0.26008
12.0,43.151270449008,17.004219883930904,43.0,0.14365
17.0,19.900102459016395,12.84207193037446,18.0,0.01952
18.0,22.473214285714285,13.249860615683241,20.0,0.00336
19.0,23.177777777777777,12.485171451479532,24.0,0.00045
16.0,22.996859049862582,13.743285113022987,22.0,0.07641
