x,mean,stdev,median,proportion
40.0,17.67789757412399,3.030397997269323,17.0,0.9893333333333333
39.0,17.912955465587043,3.109969522120116,17.0,0.988
38.0,17.963709677419356,3.233523196112693,17.0,0.992
37.0,17.964769647696478,3.1838608958920327,17.0,0.984
36.0,17.941939890710383,3.1067158976189035,17.0,0.976
35.0,18.01560379918589,3.3795057478084014,17.0,0.9826666666666667
34.0,18.110884353741497,3.299858361250234,18.0,0.98
33.0,18.12763068567549,3.3568085891721813,17.0,0.982
32.0,18.366071428571427,3.4418126222625856,18.0,0.9706666666666667
31.0,18.339846475924634,3.3426649202653937,18.0,0.9553333333333334
30.0,18.405443126308445,3.3769298112612596,18.0,0.9553333333333334
29.0,18.545580110497237,3.2445227658916327,18.0,0.9653333333333334
28.0,18.57617728531856,3.4196981629021947,18.0,0.9626666666666667
27.0,18.774415405777166,3.7063839729324863,18.0,0.9693333333333334
26.0,19.083969465648856,3.8577085328825502,18.0,0.9606666666666667
25.0,19.11691884456671,3.8087104068375246,18.0,0.9693333333333334
24.0,19.211393273850376,4.0005911429740495,18.0,0.9713333333333334
23.0,19.455609084652444,3.9986565866865806,19.0,0.9686666666666667
22.0,19.848484848484848,4.178578015694044,19.0,0.968
21.0,19.587508579272477,4.276726104677383,19.0,0.9713333333333334
20.0,19.89819944598338,4.551493264943998,19.0,0.9626666666666667
19.0,20.485079805690493,4.710783855752194,20.0,0.9606666666666667
18.0,20.681944444444444,4.8999950790476765,20.0,0.96
17.0,20.778325123152708,4.808739728020841,20.0,0.9473333333333334
16.0,21.028551034975017,5.045323341682662,20.0,0.934
15.0,21.347487615003537,5.00236204511982,20.0,0.942
14.0,22.30049610205528,5.8822963289139265,21.0,0.9406666666666667
13.0,22.009325681492108,5.4577336942704875,21.0,0.9293333333333333
12.0,22.404133998574483,5.833998225727914,21.0,0.9353333333333333
11.0,22.700434153400867,5.753874912782252,22.0,0.9213333333333333
10.0,23.216630196936542,6.120755474572658,22.0,0.914
9.0,23.69549150036955,6.18216580627566,23.0,0.902
8.0,24.11626195732156,6.444740519299911,23.0,0.906
7.0,24.85551330798479,6.852633893360932,24.0,0.8766666666666667
6.0,25.495596477181746,7.074023895616999,24.0,0.8326666666666667
5.0,25.96695652173913,7.584580716841473,24.0,0.7666666666666667
4.0,25.964583333333334,7.208270411575086,25.0,0.64
3.0,26.674744897959183,7.583889674038254,25.0,0.5226666666666666
2.0,27.382504288164665,7.755670922904725,26.0,0.38866666666666666
1.0,27.534117647058824,7.630550869655121,26.0,0.2833333333333333
0.0,26.663390663390665,7.745472565322187,25.0,0.2713333333333333
-1.0,27.0,8.30379077147724,26.0,0.11333333333333333
-2.0,26.46451612903226,7.053964723065744,25.0,0.10333333333333333
-3.0,25.858823529411765,6.79818823818518,24.0,0.056666666666666664
-4.0,27.786516853932586,7.272345509944373,26.0,0.059333333333333335
-5.0,22.52173913043478,5.371985020677353,21.0,0.015333333333333332
-6.0,26.032258064516128,7.280038421414661,25.0,0.020666666666666667
-7.0,25.866666666666667,8.44485379124799,24.0,0.01
-8.0,29.692307692307693,6.7526019530322285,29.0,0.008666666666666666
-9.0,16.0,0.0,16.0,0.0006666666666666666
-10.0,19.0,3.0,19.0,0.0013333333333333333
-11.0,25.0,0.0,25.0,0.0006666666666666666
-12.0,0.0,0.0,0.0,0.0
