x,mean,stdev,median,proportion
1.0,59.29787400002778,6.348664604160421,59.461999999999996,1.0
8.0,48.15571840220014,13.603001444162595,47.19844444444445,1.0
4.0,55.69624143550695,10.62369380049113,55.25022222222223,1.0
9.0,45.926309724410714,14.107438934852855,45.13177777777778,1.0
21.0,17.2,7.678541528180987,18.0,0.00005
18.0,20.120999728334677,12.405224075640016,18.0,0.01227
17.0,18.804089317490277,13.066750724891762,17.0,0.05807
7.0,50.237935202226,13.005307430159649,49.263555555555556,1.0
13.0,33.21954194880406,14.696908053027961,32.06666666666667,0.88665
11.0,40.40767593556734,14.676940837590589,39.13177777777778,1.0
10.0,43.35922439109439,14.43368966296544,42.13177777777778,1.0
2.0,58.4479599110486,8.112550400216566,58.39533333333333,1.0
5.0,54.082710411071915,11.524364385884946,53.263555555555556,1.0
12.0,37.047065705724336,14.816457948525615,36.06666666666666,0.97957
16.0,21.277571523407932,13.39671003062672,20.0,0.18913
15.0,24.84870654008469,13.891099480443746,24.0,0.41994
6.0,52.27222148445043,12.315007310354252,51.263555555555556,1.0
3.0,57.16483077552919,9.554659859474635,56.403555555555556,1.0
20.0,19.24722222222222,9.029139640869499,19.5,0.00024
14.0,29.086134847186788,14.383726175251898,28.066666666666663,0.68728
19.0,20.467248908296945,11.586960817679774,19.0,0.00229
0.0,59.8267482666761,4.302557435211531,59.47533333333333,1.0
