x,mean,stdev,median,proportion
18.0,26.026245298209062,11.85030129325429,25.240000000000006,0.5492
43.0,20.496,4.289881842454663,19.999999999999996,0.00005
10.0,42.09370762220867,11.657096371147796,41.26511111111111,1.0
3.0,57.05226714884351,8.230617406546964,57.39533333333333,1.0
13.0,34.922369953337025,12.275222136784812,34.13333333333334,0.98935
23.0,22.365525975770296,10.578729104488493,22.05333333333333,0.11592
20.0,24.129425532284134,11.357543600431177,23.226666666666667,0.31849
40.0,19.154814814814813,9.21259056757145,18.2,0.00018
41.0,17.23111111111111,7.800200060745514,17.173333333333332,0.00012
0.0,59.78058386666406,3.6614487768755963,59.47533333333333,1.0
47.0,10.133333333333333,0.0,10.133333333333333,0.00001
21.0,23.40682207415053,11.116180249106787,23.026666666666667,0.23112
37.0,19.310476190476198,7.72013010045502,20.066666666666663,0.00063
36.0,19.847272727272735,8.867017971871865,21.066666666666666,0.00088
12.0,37.299487987817045,12.057905752361078,36.239999999999995,0.99857
34.0,19.266959706959685,8.80229229285628,18.986666666666665,0.00182
17.0,27.320392686197554,12.074859447614521,27.0,0.67738
32.0,19.502996632996588,8.751200808992747,19.0,0.00396
49.0,-2.0,0.0,-2.0,0.00001
5.0,53.44259117106365,9.923749609443444,53.27766666666666,1.0
9.0,44.46803282665687,11.42057316984825,44.18511111111111,1.0
45.0,16.733333333333334,4.681247063985628,15.0,0.00003
16.0,28.798264442139835,12.2792071954534,28.133333333333333,0.79957
29.0,20.17177033937707,9.733617484221659,20.066666666666666,0.01195
48.0,4.066666666666666,0.0,4.066666666666666,0.00001
8.0,46.875176406660444,11.130515643541672,46.263555555555556,1.0
19.0,24.961170470662175,11.640732720992352,24.2,0.42689
28.0,20.55796931818181,9.737856680352659,20.066666666666666,0.0176
11.0,39.68549244443301,11.852022786461333,39.14666666666666,1.0
30.0,20.533257712257875,9.338995956691477,20.133333333333333,0.00814
1.0,59.29617882669028,5.69265998833427,59.461999999999996,1.0
31.0,20.224524005487044,8.600668718871129,20.06666666666667,0.00567
4.0,55.31764339774401,9.219227400721488,55.345111111111116,1.0
33.0,19.769357575757542,9.40138727090817,19.066666666666666,0.00275
35.0,18.824962406015032,9.211616568347955,18.0,0.00133
39.0,19.046060606060607,9.43385412612971,18.146666666666665,0.00033
46.0,17.566666666666666,8.566666666666666,17.566666666666666,0.00002
15.0,30.596797334301574,12.350807090568818,30.119999999999997,0.89649
7.0,49.202436508876694,10.754251272308966,48.291777777777774,1.0
14.0,32.66466320580772,12.391699728294608,32.10666666666667,0.95994
22.0,22.899639563434555,10.841409815440603,22.14666666666667,0.16472
44.0,16.901333333333334,3.645564489135317,17.04,0.00005
6.0,51.389455782192194,10.369197243747696,50.33177777777778,1.0
25.0,21.312079891618186,10.114678682631409,21.0,0.05577
38.0,18.733623188405808,9.296782463153137,18.54,0.00046
42.0,16.23047619047619,9.521706434459961,16.05333333333333,0.00007
24.0,21.815038627080817,10.34280221472929,21.25333333333333,0.08106
2.0,58.35373228664657,6.8308126530493976,58.410222222222224,1.0
26.0,20.941281331344396,9.918153929269625,20.14666666666667,0.03799
27.0,20.683827074759883,9.876208266785278,20.266666666666666,0.02592
