x,mean,stdev,median,proportion
11.0,25.368321945445743,13.13901418942806,25.0,0.18587
16.0,16.703655352480418,12.844507403960991,15.0,0.00766
15.0,16.827237991266376,12.986973252033748,15.0,0.03664
17.0,17.70689655172414,14.720392400937357,15.0,0.00116
14.0,18.302437137330756,13.215309020714354,17.0,0.12925
18.0,14.294117647058824,13.744580561431789,9.0,0.00017
13.0,20.513443101292204,13.607169344752036,19.0,0.28788
12.0,22.952951556896455,13.841223706685595,22.0,0.35134
19.0,10.0,13.589211407093005,3.0,0.00003
