x,mean,stdev,median,proportion
30.0,-5.0,3.847076812334269,-6.0,0.00005
22.0,-0.125,7.565340375687005,-1.0,0.00016
17.0,28.362745098039216,17.53714408134336,30.0,0.00306
29.0,-0.5,4.349329450233296,-1.5,0.00006
25.0,-2.8,7.943131204590123,-5.0,0.00015
32.0,-0.5,3.640054944640259,-1.0,0.00004
45.0,-9.5,4.5,-9.5,0.00002
23.0,1.4,12.5687443021701,2.0,0.00015
42.0,-6.0,0.0,-6.0,0.00001
43.0,-5.5,1.5,-5.5,0.00002
28.0,-1.6363636363636365,6.58196885814471,-3.0,0.00011
58.0,-13.0,0.0,-13.0,0.00001
51.0,-2.0,0.0,-2.0,0.00001
13.0,37.102044958644136,15.6446590034768,37.0,0.19707
33.0,-5.5,5.315072906367325,-6.5,0.00004
55.0,-7.0,0.0,-7.0,0.00001
14.0,34.393024654239326,15.88381445646185,34.0,0.08315
15.0,32.24239207360227,15.552242409360522,31.0,0.02826
57.0,-2.0,0.0,-2.0,0.00001
11.0,45.59548229915481,15.671583821057729,46.0,0.33247
46.0,-10.0,0.0,-10.0,0.00001
41.0,-18.0,0.0,-18.0,0.00001
39.0,-1.0,0.0,-1.0,0.00001
24.0,-2.8333333333333335,5.444160990353692,-3.5,0.00012
34.0,1.0,4.320493798938574,3.0,0.00003
35.0,7.0,2.345207879911715,6.0,0.00004
16.0,30.39236479321315,16.53733284259199,30.0,0.00943
20.0,4.538461538461538,15.021089710626006,-0.5,0.00026
48.0,1.0,1.0,1.0,0.00002
26.0,-1.1,7.408778576796583,1.0,0.0001
36.0,2.0,3.0,2.0,0.00002
37.0,-2.6,4.127953488110059,-3.0,0.00005
21.0,1.2692307692307692,7.304148938512709,0.0,0.00026
27.0,-0.6923076923076923,5.412018184411649,-1.0,0.00013
38.0,0.0,6.48074069840786,3.0,0.00003
31.0,-6.0,8.602325267042627,-5.0,0.00004
56.0,4.0,0.0,4.0,0.00001
19.0,13.070175438596491,19.532123472312026,7.0,0.00057
59.0,-7.0,0.0,-7.0,0.00001
12.0,40.86981489578778,15.73044564147593,41.0,0.34305
40.0,-2.0,0.0,-2.0,0.00001
18.0,21.043956043956044,17.502220950378554,20.0,0.00091
50.0,-6.5,3.5,-6.5,0.00002
