x,mean,stdev,median,proportion
12.0,32.922134072115185,13.878981989674731,32.0,0.23823
21.0,20.5,17.5,20.5,0.00002
20.0,30.0,13.360389215887388,32.5,0.00004
13.0,32.776127926898916,13.453682248605956,32.0,0.07004
11.0,32.91475177945315,14.669857947477146,32.0,0.66453
18.0,28.0,15.337234732205452,34.0,0.00013
15.0,31.18840579710145,12.985108932167496,32.0,0.00552
16.0,29.275862068965516,13.236044183824239,29.0,0.00145
17.0,30.27906976744186,12.781391963711005,32.0,0.00043
19.0,35.333333333333336,11.628509028341606,39.0,0.00006
14.0,32.34475703324808,13.340545159234335,32.0,0.01955
