x,mean,stdev,median,proportion
21.0,18.762764632627647,10.102975817883143,18.0,0.01606
28.0,16.25,9.506576670915772,16.5,0.00032
15.0,22.463604343997652,10.102210799060941,22.0,0.13628
22.0,18.401727861771057,10.2614081925634,18.0,0.00926
32.0,9.0,0.0,9.0,0.00001
30.0,10.6,7.269112738154499,9.0,0.0001
17.0,21.090718341150332,10.185167421355573,20.0,0.08102
25.0,17.456410256410255,9.961561891534338,17.0,0.00195
11.0,23.287440497986086,8.76286226705319,23.0,0.08193
12.0,24.20812677773263,9.299014848321676,24.0,0.12305
23.0,16.810469314079423,9.965019982190112,16.0,0.00554
31.0,17.75,13.497684986693088,16.5,0.00004
27.0,15.037037037037036,8.779106009837312,13.5,0.00054
19.0,19.649350649350648,10.173260384511476,19.0,0.0385
14.0,22.977475424777033,9.955601610025955,23.0,0.15361
24.0,17.196825396825396,10.314698531460365,16.0,0.00315
26.0,17.60377358490566,9.618848679077987,17.0,0.00106
20.0,19.35677393722686,10.50511381996545,19.0,0.02517
29.0,15.6,8.467978900934193,15.0,0.00015
18.0,20.223125884016973,10.258594347175924,20.0,0.05656
16.0,21.651647242360283,10.229197114649395,21.0,0.10897
13.0,23.73923307599056,9.593815552389378,23.0,0.15673
