x,mean,stdev,median,proportion
43.0,5.716666666666668,6.450456486861134,6.699999999999999,0.0002
56.0,9.15,3.554769878471585,10.633333333333333,0.00004
17.0,21.636774524910237,16.992007450900104,18.0,0.00649
2.0,56.736699873333116,7.9151805721383,56.38511111111111,1.0
54.0,6.433333333333333,1.8064698539785635,6.199999999999999,0.00004
14.0,34.24191460486437,15.966101794405631,34.0,0.12772
23.0,6.572444444444457,6.55269325083253,7.199999999999999,0.0015
20.0,8.56085626911317,8.861260272642063,8.2,0.00218
15.0,31.722822688700354,16.707468789926143,31.0,0.04478
50.0,6.940740740740741,4.398478350177726,7.199999999999999,0.00009
1.0,58.10673713557303,6.453498451283304,57.43688888888889,1.0
10.0,45.40593566670803,15.317133824935905,45.06666666666666,1.0
4.0,53.84667963777587,10.280043434279056,53.34,1.0
57.0,7.866666666666666,3.2383123176535435,8.1,0.00004
26.0,6.87712418300654,5.884996210763484,8.2,0.00102
45.0,6.196296296296297,5.310203187027511,7.199999999999999,0.00018
3.0,55.29124065777822,9.159781598701647,54.47688888888889,1.0
13.0,36.93970481450233,15.766157632393941,36.06666666666666,0.32409
47.0,4.776190476190477,4.8392972822447105,5.1,0.00014
24.0,6.511442786069662,6.228883537521539,7.199999999999999,0.00134
51.0,5.275,7.37740073919444,5.166666666666666,0.00008
9.0,46.78569000003286,14.604256754093104,46.2,1.0
11.0,43.524253266707284,15.620023914391455,43.06666666666666,1.0
25.0,7.093215339233048,5.786544184116308,8.2,0.00113
0.0,59.55906126668742,4.605688009003492,59.47533333333333,1.0
32.0,9.198717948717944,5.079008086493788,9.633333333333333,0.00052
34.0,7.973049645390065,5.215682109967959,9.2,0.00047
28.0,6.921666666666667,5.547639888577243,7.199999999999999,0.0008
30.0,7.3915343915343845,5.835118300613155,7.199999999999999,0.00063
35.0,7.181818181818176,5.224753894670201,7.199999999999999,0.00044
55.0,8.166666666666666,4.119465984809196,10.2,0.00004
8.0,48.12210752225636,13.863329727528422,47.38666666666666,1.0
40.0,7.883333333333332,4.3730339497797095,7.699999999999999,0.00024
7.0,49.521422168876484,13.041547865461258,49.22666666666667,1.0
52.0,5.714285714285713,6.258729957449203,3.1999999999999993,0.00007
36.0,5.756097560975606,6.317139927031102,4.199999999999999,0.00041
16.0,27.63808284536965,17.4345773170869,27.0,0.01537
58.0,4.822222222222222,0.4433319409613335,5.066666666666666,0.00003
21.0,7.940780141843989,7.3681389598598255,8.2,0.00188
49.0,7.06,5.087889761209673,8.2,0.0001
29.0,7.34324324324324,6.5756734539714765,9.2,0.00074
31.0,7.302824858757056,6.584663137195592,8.2,0.00059
59.0,2.755555555555555,3.8030527049389167,0.13333333333333286,0.00003
19.0,10.57979797979797,11.627983312629228,9.2,0.00264
22.0,7.292369477911663,7.011998371315848,8.1,0.00166
27.0,7.229118773946362,6.033408065830637,8.133333333333333,0.00087
37.0,7.188235294117642,5.069309697323866,8.166666666666666,0.00034
42.0,5.8484848484848495,4.606327743449597,6.166666666666666,0.00022
39.0,8.230952380952377,6.349840196535811,11.2,0.00028
53.0,4.828571428571428,9.346919169393928,11.2,0.00007
18.0,14.820821917808166,15.117212822652334,11.2,0.00365
5.0,52.367813404443034,11.2682252204137,52.2,1.0
41.0,8.590909090909086,5.06061422608668,9.7,0.00022
48.0,7.080000000000001,5.089317788815664,4.199999999999999,0.0001
12.0,40.14107234603131,15.640081609786055,40.0,0.66956
44.0,9.225925925925925,5.371306431831691,10.633333333333333,0.00018
38.0,7.21458333333333,5.376588508808867,7.199999999999999,0.00032
33.0,8.030065359477119,6.052786156570051,9.0,0.00051
6.0,50.931040773327446,12.184580938140927,50.31999999999999,1.0
46.0,5.413333333333333,5.839898527784093,6.199999999999999,0.00015
