x,mean,stdev,median,proportion
17.0,18.298292902066486,13.003868619086262,16.0,0.01113
11.0,41.478606460341624,16.371178386783857,41.0,0.05913
16.0,19.212095400340715,13.320984465326926,18.0,0.04696
18.0,19.878172588832488,12.025581054828644,18.0,0.00197
13.0,29.06576147532678,15.127968744093648,28.0,0.29607
19.0,17.31578947368421,9.307906269058225,17.0,0.00038
15.0,21.23866330764671,13.837732089936635,20.0,0.13496
14.0,24.590134031247523,14.530164796234994,23.0,0.25218
12.0,34.578247856744284,15.915676495703263,34.0,0.19713
20.0,20.375,6.4408365139941255,20.5,0.00008
21.0,41.0,0.0,41.0,0.00001
