x,mean,stdev,median,proportion
40.0,13.441256830601093,3.144184075772927,12.0,0.976
39.0,13.5,3.194259961759015,12.0,0.9706666666666667
38.0,13.523939808481533,3.2806131715889095,12.0,0.9746666666666667
37.0,13.474402730375427,2.9428330366322486,13.0,0.9766666666666667
36.0,13.586113002042206,3.089360814444565,13.0,0.9793333333333333
35.0,13.791411042944786,3.167465379752365,13.0,0.978
34.0,13.883528600964851,3.3064600984864225,13.0,0.9673333333333334
33.0,13.798203178991017,3.143984869979107,13.0,0.9646666666666667
32.0,13.717877094972067,3.037937768344798,13.0,0.9546666666666667
31.0,13.890173410404625,3.075554646907418,13.0,0.9226666666666666
30.0,14.019244476122594,3.4231695973248204,13.0,0.9353333333333333
29.0,14.05937052932761,3.4931029782066303,13.0,0.932
28.0,14.064310954063604,3.339362384196951,13.0,0.9433333333333334
27.0,14.262825017568517,3.218195747229105,13.0,0.9486666666666667
26.0,14.492382271468143,3.449569024928539,14.0,0.9626666666666667
25.0,14.545201668984701,3.463154146471473,14.0,0.9586666666666667
24.0,14.834132967786156,3.490500196700972,14.0,0.9726666666666667
23.0,15.020083102493075,3.687819434497781,14.0,0.9626666666666667
22.0,15.01943095072866,3.473250205578052,14.0,0.9606666666666667
21.0,15.20315717227179,3.6421864239982,14.0,0.9713333333333334
20.0,15.508650519031141,3.7675670991664076,15.0,0.9633333333333334
19.0,15.855371900826446,3.925584311858992,15.0,0.968
18.0,15.900548696844993,3.7525098652476494,15.0,0.972
17.0,16.202208419599724,3.920866030609975,15.0,0.966
16.0,16.389736477115118,4.218788312600379,16.0,0.9613333333333334
15.0,16.72903672903673,4.560295470197601,16.0,0.962
14.0,17.079944865609924,4.564925338532316,16.0,0.9673333333333334
13.0,17.288858321870702,4.677544435148474,16.0,0.9693333333333334
12.0,17.833676975945018,4.934328159296675,17.0,0.97
11.0,18.163877266387725,4.971781518340083,17.0,0.956
10.0,18.524725274725274,4.814349394192442,18.0,0.9706666666666667
9.0,19.00889801505818,5.33266279531834,18.0,0.974
8.0,19.53015427769986,5.469871794809653,19.0,0.9506666666666667
7.0,19.888418079096045,5.616534436772131,19.0,0.944
6.0,20.547904191616766,5.885314498419919,20.0,0.8906666666666667
5.0,20.486099410278012,5.678149537813686,20.0,0.7913333333333333
4.0,21.265671641791045,6.50969928244787,20.0,0.67
3.0,21.54914004914005,6.762333749316354,20.0,0.5426666666666666
2.0,21.58147512864494,6.45367180864536,21.0,0.38866666666666666
1.0,21.509473684210526,6.527465433546893,21.0,0.31666666666666665
0.0,21.607375271149674,6.184778551858373,21.0,0.30733333333333335
-1.0,22.038961038961038,6.787003543713395,21.0,0.20533333333333334
-2.0,22.337579617834393,6.629939946627745,21.0,0.20933333333333334
-3.0,22.11111111111111,6.2388171560138606,21.0,0.144
-4.0,21.56561085972851,6.401462871039226,20.0,0.14733333333333334
-5.0,22.424836601307188,6.887226796552955,22.0,0.102
-6.0,23.032894736842106,8.156703542064662,21.0,0.10133333333333333
-7.0,21.883116883116884,7.048945810423456,21.0,0.051333333333333335
-8.0,22.630434782608695,6.619663381866553,22.0,0.06133333333333333
-9.0,21.916666666666668,6.30156506133375,22.0,0.04
-10.0,21.9811320754717,7.331736559816921,22.0,0.035333333333333335
-11.0,22.885714285714286,7.789265245273426,22.0,0.023333333333333334
-12.0,22.675675675675677,6.754594248537902,22.0,0.024666666666666667
-13.0,23.0,7.478705401522286,22.0,0.019333333333333334
-14.0,23.0,6.668627162714536,22.0,0.011333333333333334
-15.0,22.4375,5.9996744703358695,23.0,0.010666666666666666
-16.0,25.428571428571427,8.780776777502462,26.0,0.004666666666666667
-17.0,21.5,5.188127472091127,19.0,0.004
-18.0,23.857142857142858,9.5831484749991,20.0,0.004666666666666667
-19.0,0.0,0.0,0.0,0.0
